Division,WeightClassKg,Place,Name,Team,BodyweightKg,Best3SquatKg,Best3BenchKg,Best3DeadliftKg,TotalKg,Equipment,Event,Sex
Boys,51.71,1,Bryan Martinez,Taylor,51.12,140.61,54.43,117.93,312.98,Single-ply,SBD,M
Boys,51.71,2,Gilbert Velasquez,Taylor,50.48,90.72,61.23,113.4,265.35,Single-ply,SBD,M
Boys,51.71,3,Wyatt Ivey,Lometa,42.59,45.36,29.48,72.57,147.42,Single-ply,SBD,M
Boys,55.79,1,Marcos Mendoza,Salado,55.29,154.22,97.52,165.56,417.3,Single-ply,SBD,M
Boys,59.87,2,Randy Salinas,Bangs,56.02,124.74,81.65,140.61,347,Single-ply,SBD,M
Boys,55.79,3,Will Meng,Liberty Hill,54.43,124.74,70.31,124.74,319.78,Single-ply,SBD,M
Boys,55.79,4,Dominic Garcia,Burnet,54.57,122.47,70.31,127.01,319.78,Single-ply,SBD,M
Boys,55.79,5,Chris Ramirez,Lampasas,54.2,108.86,70.31,124.74,303.91,Single-ply,SBD,M
Boys,55.79,6,Angel Gonzales #2,Lago Vista,53.61,95.25,45.36,113.4,254.01,Single-ply,SBD,M
Boys,55.79,7,Marcus Griffith,Lometa,54.52,63.5,43.09,90.72,197.31,Single-ply,SBD,M
Boys,55.79,DQ,Joe Reyes,Brady,55.2,81.65,,,,Single-ply,SBD,M
Boys,67.13,1,Melvin Flores,Lampasas,60.01,147.42,83.91,163.29,394.63,Single-ply,SBD,M
Boys,67.13,2,Isidro Arce,Lampasas,60.06,136.08,74.84,149.69,360.61,Single-ply,SBD,M
Boys,67.13,3,Joseph Marmolejo,Taylor,59.92,113.4,81.65,147.42,342.46,Single-ply,SBD,M
Boys,59.87,4,Clay Cosgrove,Lago Vista,56.47,99.79,63.5,92.99,256.28,Single-ply,SBD,M
Boys,59.87,DQ,Justus Alaniz,Lometa,59.1,,,,,Single-ply,SBD,M
Boys,67.13,DQ,Dustin Free,Salado,60.1,,,,,Single-ply,SBD,M
Boys,74.84,1,Royal Lucas,Taylor,67.36,183.7,102.06,208.65,494.42,Single-ply,SBD,M
Boys,67.13,2,David Salazar,Taylor,64.73,181.44,97.52,199.58,478.54,Single-ply,SBD,M
Boys,74.84,3,Josh Robinson,Salado,67.36,170.1,120.2,185.97,476.27,Single-ply,SBD,M
Boys,67.13,4,Adiran Zackery,Lampasas,65.95,151.95,79.38,192.78,424.11,Single-ply,SBD,M
Boys,67.13,5,Scott Zufelt,Lago Vista,65.77,140.61,86.18,188.24,415.04,Single-ply,SBD,M
Boys,67.13,6,Corey Crowell,Bangs,61.1,149.69,99.79,149.69,399.16,Single-ply,SBD,M
Boys,67.13,7,Dakota Murray,Brady,62.37,158.76,74.84,165.56,399.16,Single-ply,SBD,M
Boys,67.13,8,Austin Stamper,Lago Vista,62.78,136.08,88.45,158.76,383.29,Single-ply,SBD,M
Boys,67.13,9,Cory Ferrell,Liberty Hill,62.01,142.88,83.91,154.22,381.02,Single-ply,SBD,M
Boys,67.13,10,Justin Medrano,Brady,63.55,124.74,97.52,158.76,381.02,Single-ply,SBD,M
Boys,67.13,11,Knijen Bell-Willams,Lampasas,66.45,142.88,88.45,149.69,381.02,Single-ply,SBD,M
Boys,67.13,12,Marco Munoz,Lampasas,64,131.54,83.91,149.69,365.14,Single-ply,SBD,M
Boys,67.13,13,Landon Spruiell,Marble Falls,66.77,124.74,79.38,147.42,351.53,Single-ply,SBD,M
Boys,67.13,14,Jose Martinez-Gonzales,Taylor,66.45,117.93,86.18,129.27,333.39,Single-ply,SBD,M
Boys,67.13,15,Phillipe Valles,Lampasas,64.91,113.4,63.5,154.22,331.12,Single-ply,SBD,M
Boys,74.84,16,Steven Svatek,Taylor,67.36,102.06,79.38,149.69,331.12,Single-ply,SBD,M
Boys,67.13,17,Trent Cofresi,Bangs,66.5,102.06,61.23,122.47,285.76,Single-ply,SBD,M
Boys,74.84,18,Dillon Sims,Lometa,67.27,77.11,56.7,136.08,269.89,Single-ply,SBD,M
Boys,67.13,19,Alex Rangel,Taylor,66.27,111.13,70.31,70.31,251.74,Single-ply,SBD,M
Boys,74.84,1,Zach Robinson,Salado,72.44,174.63,111.13,192.78,478.54,Single-ply,SBD,M
Boys,74.84,2,Andrew Quintanna,Bangs,73.26,199.58,88.45,190.51,478.54,Single-ply,SBD,M
Boys,74.84,3,Jake Gravell,Bangs,72.35,174.63,117.93,181.44,474,Single-ply,SBD,M
Boys,74.84,4,Laravis Blunson,Taylor,72.62,172.37,106.59,174.63,453.59,Single-ply,SBD,M
Boys,82.1,5,Mason Bierman,Brady,74.93,158.76,102.06,151.95,412.77,Single-ply,SBD,M
Boys,82.1,6,Michael Gutierrez,Lago Vista,75.07,140.61,95.25,158.76,394.63,Single-ply,SBD,M
Boys,74.84,7,Joel Camacho,Marble Falls,69.99,138.35,97.52,151.95,387.82,Single-ply,SBD,M
Boys,74.84,8,Alan Scott,Gatesville,69.31,136.08,88.45,158.76,383.29,Single-ply,SBD,M
Boys,74.84,9,Jesse Uvalle,Lampasas,71.99,129.27,90.72,142.88,362.87,Single-ply,SBD,M
Boys,74.84,10,Brodee Johnson,Burnet,70.62,136.08,77.11,145.15,358.34,Single-ply,SBD,M
Boys,74.84,11,Chaseland Taylor,Lago Vista,72.57,129.27,61.23,158.76,349.27,Single-ply,SBD,M
Boys,74.84,12,Adam Boyer,Brady,71.94,127.01,79.38,124.74,331.12,Single-ply,SBD,M
Boys,82.1,DQ,Steven Jazdyk,Lampasas,75.07,,,,,Single-ply,SBD,M
Boys,74.84,DQ,Morgan Amthor,Lampasas,72.21,142.88,,,,Single-ply,SBD,M
Boys,74.84,DQ,Cody Barrick,Lago Vista,72.85,,,,,Single-ply,SBD,M
Boys,82.1,1,Josh Beckwith,Bangs,82.05,208.65,113.4,204.12,526.17,Single-ply,SBD,M
Boys,82.1,2,Jacob Beckwith,Bangs,81.06,217.72,113.4,192.78,523.9,Single-ply,SBD,M
Boys,82.1,3,Jonah Pearson,Liberty Hill,77.11,195.04,127.01,192.78,514.83,Single-ply,SBD,M
Boys,82.1,4,Kevin Reed,Marble Falls,77.75,176.9,113.4,181.44,471.74,Single-ply,SBD,M
Boys,82.1,5,Blake Nash,Salado,79.06,179.17,117.93,174.63,471.74,Single-ply,SBD,M
Boys,82.1,6,Cody Jandreau,Lampasas,81.83,176.9,117.93,174.63,469.47,Single-ply,SBD,M
Boys,82.1,7,Evan Wotipka,Lago Vista,77.56,161.03,99.79,174.63,435.45,Single-ply,SBD,M
Boys,82.1,8,Joseph Rudd,Bangs,78.79,172.37,104.33,158.76,435.45,Single-ply,SBD,M
Boys,82.1,9,Victor Colunga,Brady,79.97,163.29,77.11,176.9,417.3,Single-ply,SBD,M
Boys,82.1,10,Hunter Thomas,Burnet,79.51,154.22,83.91,154.22,392.36,Single-ply,SBD,M
Boys,82.1,11,Nick Moler,Gatesville,78.79,142.88,68.04,172.37,383.29,Single-ply,SBD,M
Boys,82.1,12,Kasey Kiphen,Gatesville,77.56,147.42,81.65,151.95,381.02,Single-ply,SBD,M
Boys,82.1,13,Justin Mosely,Gatesville,77.56,129.27,92.99,142.88,365.14,Single-ply,SBD,M
Boys,82.1,14,Zach Badon,Liberty Hill,78.2,138.35,72.57,138.35,349.27,Single-ply,SBD,M
Boys,82.1,15,Kenny Alexander,Liberty Hill,81.06,124.74,74.84,142.88,342.46,Single-ply,SBD,M
Boys,82.1,16,Caden Ridley,Gatesville,79.47,111.13,77.11,124.74,312.98,Single-ply,SBD,M
Boys,82.1,DQ,Ray Galbraith,Lampasas,80.92,,,,,Single-ply,SBD,M
Boys,89.81,1,Christian Bosquez,Bangs,88.09,240.4,142.88,217.72,601.01,Single-ply,SBD,M
Boys,89.81,2,Mikey Sellers,Salado,88.31,231.33,136.08,204.12,571.53,Single-ply,SBD,M
Boys,89.81,3,Justin Maldonado,Lampasas,89.45,204.12,113.4,204.12,521.63,Single-ply,SBD,M
Boys,99.79,4,Steven McKinney,Lampasas,90.04,181.44,120.2,204.12,505.76,Single-ply,SBD,M
Boys,89.81,5,Dakota Dodd,Burnet,88.86,176.9,113.4,183.7,474,Single-ply,SBD,M
Boys,89.81,6,Tyler Bridges,Salado,83.87,183.7,92.99,176.9,453.59,Single-ply,SBD,M
Boys,89.81,7,Bj Walker,Burnet,88.81,172.37,102.06,174.63,449.06,Single-ply,SBD,M
Boys,89.81,8,Robert Reeves,Brady,86.68,158.76,90.72,176.9,426.38,Single-ply,SBD,M
Boys,89.81,9,Cody Letterman,Burnet,84.05,154.22,88.45,165.56,408.23,Single-ply,SBD,M
Boys,89.81,10,Steven Cuellar,Taylor,86.59,142.88,79.38,181.44,403.7,Single-ply,SBD,M
Boys,89.81,11,Logan Knight,Burnet,88.36,149.69,83.91,158.76,392.36,Single-ply,SBD,M
Boys,89.81,DQ,Adam Prado,Lampasas,89.22,,,,,Single-ply,SBD,M
Boys,99.79,1,Secody Howard,Lampasas,96.25,183.7,117.93,249.48,551.11,Single-ply,SBD,M
Boys,99.79,2,La Villarreal,Brady,97.11,208.65,138.35,204.12,551.11,Single-ply,SBD,M
Boys,109.77,3,Adrian Martinez #5,Lampasas,99.84,181.44,124.74,226.8,532.97,Single-ply,SBD,M
Boys,99.79,4,Austin Esposito,Burnet,95.98,192.78,113.4,210.92,517.1,Single-ply,SBD,M
Boys,99.79,5,Justin Hoskinson,Bangs,96.57,208.65,115.67,190.51,514.83,Single-ply,SBD,M
Boys,99.79,6,Shawn Dehart,Liberty Hill,94.35,197.31,117.93,183.7,498.95,Single-ply,SBD,M
Boys,99.79,7,Taylor Cauble,Marble Falls,96.93,181.44,113.4,204.12,498.95,Single-ply,SBD,M
Boys,99.79,8,Josh Valles,Lampasas,96.34,181.44,117.93,185.97,485.34,Single-ply,SBD,M
Boys,99.79,9,Will Smith #2,Liberty Hill,93.26,181.44,117.93,163.29,462.66,Single-ply,SBD,M
Boys,99.79,10,Noe Brizuela,Lampasas,95.39,158.76,90.72,183.7,433.18,Single-ply,SBD,M
Boys,99.79,11,Isreal Torrez,Brady,91.85,156.49,99.79,158.76,415.04,Single-ply,SBD,M
Boys,109.77,12,Zach McLeskey,Burnet,99.88,149.69,86.18,151.95,387.82,Single-ply,SBD,M
Boys,99.79,13,Anthony Foreman,Lampasas,93.21,131.54,68.04,147.42,347,Single-ply,SBD,M
Boys,99.79,14,Jacob Popple,Salado,97.02,131.54,72.57,138.35,342.46,Single-ply,SBD,M
Boys,99.79,15,Peyton Womack,Salado,95.84,133.81,74.84,127.01,335.66,Single-ply,SBD,M
Boys,99.79,16,Carlos Angulo,Gatesville,93.08,117.93,72.57,136.08,326.59,Single-ply,SBD,M
Boys,109.77,1,Billy Golding,Salado,108.54,263.08,145.15,231.33,639.57,Single-ply,SBD,M
Boys,109.77,2,David Cockrell,Lampasas,104.69,204.12,145.15,199.58,548.85,Single-ply,SBD,M
Boys,109.77,3,Andy Gamez,Lampasas,107.68,222.26,117.93,197.31,537.51,Single-ply,SBD,M
Boys,109.77,4,Vincent Campuzano,Marble Falls,103.87,199.58,131.54,199.58,530.7,Single-ply,SBD,M
Boys,109.77,5,Vincent Hernandez,Liberty Hill,107.55,204.12,124.74,201.85,530.7,Single-ply,SBD,M
Boys,124.74,6,Tycom Wright,Taylor,110,197.31,115.67,217.72,530.7,Single-ply,SBD,M
Boys,109.77,7,Zach Reid,Burnet,102.97,188.24,104.33,208.65,501.22,Single-ply,SBD,M
Boys,109.77,8,Jodey Hodges,Salado,109.32,215.46,92.99,183.7,492.15,Single-ply,SBD,M
Boys,109.77,9,John Beebe,Lago Vista,101.65,167.83,115.67,204.12,487.61,Single-ply,SBD,M
Boys,109.77,10,Chandler Mabray,Marble Falls,100.74,158.76,90.72,183.7,433.18,Single-ply,SBD,M
Boys,124.74,1,Josh Vela,Brady,111.27,265.35,133.81,181.44,580.6,Single-ply,SBD,M
Boys,124.74,2,Jamie Nesom,Burnet,114.31,238.14,129.27,206.38,573.79,Single-ply,SBD,M
Boys,124.74,3,Bryce Dallmeyer,Liberty Hill,115.53,235.87,145.15,190.51,571.53,Single-ply,SBD,M
Boys,124.74,4,Dan Goldman,Salado,117.21,226.8,124.74,204.12,555.65,Single-ply,SBD,M
Boys,124.74,5,Jake Terry,Lampasas,115.39,215.46,136.08,183.7,535.24,Single-ply,SBD,M
Boys,124.74,6,Matt Traywick,Lago Vista,119.52,199.58,124.74,204.12,528.44,Single-ply,SBD,M
Boys,124.74,7,Jacob Reed,Burnet,122.33,215.46,113.4,195.04,523.9,Single-ply,SBD,M
Boys,124.74,8,Nick Perez,Bangs,111.63,147.42,88.45,138.35,374.21,Single-ply,SBD,M
Boys,124.74+,1,Jake Dibble,Lampasas,140.3,204.12,108.86,199.58,512.56,Single-ply,SBD,M
Boys,124.74+,2,Chace Fry,Marble Falls,146.65,181.44,127.01,181.44,489.88,Single-ply,SBD,M
Boys,124.74+,3,Jacob Jimmerson,Salado,128.91,192.78,92.99,167.83,453.59,Single-ply,SBD,M
Boys,124.74+,4,Travis Derwacter,Lampasas,138.84,170.1,92.99,158.76,421.84,Single-ply,SBD,M
Boys,124.74+,5,Travis Sparks,Marble Falls,130.32,151.95,92.99,158.76,403.7,Single-ply,SBD,M
