Place,Name,CyrillicName,BirthYear,BodyweightKg,Best3SquatKg,Best3BenchKg,Best3DeadliftKg,TotalKg,WeightClassKg,Event,Equipment,Division,Sex,BirthDate
1,Karina Simonyants,Карина Симонянц,1977,47,130,100,137.5,367.5,47,SBD,Single-ply,Open,F,
2,Anastasiya Frolova,Анастасия Фролова,1998,46.3,135,55,125,315,47,SBD,Single-ply,Open,F,
3,Evgeniya Natashkina,Евгения Наташкина,2000,45.9,117.5,67.5,117.5,302.5,47,SBD,Single-ply,Open,F,
4,Nina Akilbaeva,Нина Акилбаева,1985,46.45,120,50,130,300,47,SBD,Single-ply,Open,F,
5,Aleksandra Suntsova,Александра Сунцова,1998,46,107.5,80,110,297.5,47,SBD,Single-ply,Open,F,
6,Lina Preys,Лина Прейс,1998,46.35,120,65,112.5,297.5,47,SBD,Single-ply,Open,F,
7,Viktoriya Burmistrova,Виктория Бурмистрова,1991,46.65,125,60,112.5,297.5,47,SBD,Single-ply,Open,F,
8,Olga Pavlova,Ольга Павлова,1987,44.55,105,72.5,100,277.5,47,SBD,Single-ply,Open,F,
9,Vera Ivleva,Вера Ивлева,1997,46.75,112.5,50,112.5,275,47,SBD,Single-ply,Open,F,
10,Kseniya Ilina,Ксения Ильина,1999,46.35,92.5,62.5,107.5,262.5,47,SBD,Single-ply,Open,F,
11,Aleksandra Kasyanova,Александра Касьянова,1997,43.75,90,50,105,245,47,SBD,Single-ply,Open,F,
12,Kseniya Bruyalova,Ксения Бруялова,1983,46.45,85,52.5,97.5,235,47,SBD,Single-ply,Open,F,
DQ,Darya Gruzinskaya,Дарья Грузинская,2003,46.5,95,55,,,47,SBD,Single-ply,Open,F,
DQ,Ilona Zhanysova,Илона Жанысова,2000,46.55,117.5,62.5,,,47,SBD,Single-ply,Open,F,
DQ,Svetlana Aleksandrova,Светлана Александрова,2000,46.1,90,,,,47,SBD,Single-ply,Open,F,
DQ,Lyudmila Petrova,Людмила Петрова,2000,47,,,,,47,SBD,Single-ply,Open,F,
1,Margarita Vasileva,Маргарита Васильева,1995,51.65,162.5,102.5,152.5,417.5,52,SBD,Single-ply,Open,F,
2,Olga Bychkova,Ольга Бычкова,1966,51.05,142.5,77.5,155,375,52,SBD,Single-ply,Open,F,
3,Olga Kuznetsova,Ольга Кузнецова,1988,51.75,140,82.5,140,362.5,52,SBD,Single-ply,Open,F,
4,Elena Vorontsova,Елена Воронцова,1989,51.8,135,77.5,147.5,360,52,SBD,Single-ply,Open,F,
5,Yanina Udarova,Янина Ударова,1988,51.95,125,100,135,360,52,SBD,Single-ply,Open,F,
6,Elena Zhirnyakova,Елена Жирнякова,1997,52,142.5,75,132.5,350,52,SBD,Single-ply,Open,F,
7,Oksana Ibragimova,Оксана Ибрагимова,1963,50.95,130,70,140,340,52,SBD,Single-ply,Open,F,
8,Natalya Fedorova,Наталья Федорова,1991,50.95,132.5,70,135,337.5,52,SBD,Single-ply,Open,F,
9,Irina Kondyukova,Ирина Кондюкова,1986,51.4,135,62.5,137.5,335,52,SBD,Single-ply,Open,F,
10,Svetlana Merkulova,Светлана Меркулова,1992,51.85,135,70,130,335,52,SBD,Single-ply,Open,F,
11,Zalina Mullagildina,Залина Муллагильдина,1992,51.3,135,75,120,330,52,SBD,Single-ply,Open,F,
12,Ekaterina Nikolaeva,Екатерина Николаева,1989,51.8,117.5,82.5,130,330,52,SBD,Single-ply,Open,F,
13,Yuliya Yakovleva,Юлия Яковлева,2000,50.5,130,57.5,137.5,325,52,SBD,Single-ply,Open,F,
14,Svetlana Kaseva,Светлана Касева,1996,51.55,140,67.5,117.5,325,52,SBD,Single-ply,Open,F,
15,Elena Lagutina,Елена Лагутина,2001,51.85,115,75,135,325,52,SBD,Single-ply,Open,F,
16,Sofya Pidmicheva,Софья Пидмичева,1996,50.2,132.5,70,112.5,315,52,SBD,Single-ply,Open,F,
17,Anastasiya Byakina,Анастасия Бякина,1996,51.85,147.5,50,115,312.5,52,SBD,Single-ply,Open,F,
18,Anna Milyaeva,Анна Миляева,1995,51.95,127.5,65,120,312.5,52,SBD,Single-ply,Open,F,
19,Ekaterina Selivanova,Екатерина Селиванова,1995,51.05,130,60,120,310,52,SBD,Single-ply,Open,F,
20,Kseniya Fedorova,Ксения Федорова,1996,50.75,120,72.5,110,302.5,52,SBD,Single-ply,Open,F,
21,Anna Pozhidaeva,Анна Пожидаева,1996,51.55,125,60,110,295,52,SBD,Single-ply,Open,F,
22,Kristina Battalova,Кристина Батталова,2001,49.9,105,57.5,107.5,270,52,SBD,Single-ply,Open,F,
23,Elizaveta Borisova,Елизавета Борисова,1997,47.1,90,45,82.5,217.5,52,SBD,Single-ply,Open,F,
DQ,Alena Korneva,Алена Корнева,1983,50.2,127.5,,,,52,SBD,Single-ply,Open,F,
DQ,Svetlana Goryunova,Светлана Горюнова,1978,51.45,120,,,,52,SBD,Single-ply,Open,F,
1,Kseniya Toropushina,Ксения Торопушина,1987,55.5,147.5,85,160,392.5,57,SBD,Single-ply,Open,F,
2,Yuliya Rogova,Юлия Рогова,2000,55.75,145,90,145,380,57,SBD,Single-ply,Open,F,
3,Evgeniya Chizhevskaya,Евгения Чижевская,1975,56,157.5,77.5,135,370,57,SBD,Single-ply,Open,F,
4,Ekaterina Sokolova,Екатерина Соколова,1994,56.8,140,82.5,145,367.5,57,SBD,Single-ply,Open,F,
5,Anastasiya Kartel,Анастасия Картель,1997,55.2,137.5,97.5,125,360,57,SBD,Single-ply,Open,F,
6,Ekaterina Kolesnikova,Екатерина Колесникова,1991,55.95,147.5,60,150,357.5,57,SBD,Single-ply,Open,F,
7,Anastasiya Terenteva,Анастасия Терентьева,1993,56.35,145,80,127.5,352.5,57,SBD,Single-ply,Open,F,
8,Kseniya Isakova,Ксения Исакова,1993,56.35,125,80,147.5,352.5,57,SBD,Single-ply,Open,F,
9,Kristina Oparina,Кристина Опарина,1996,56.5,120,95,137.5,352.5,57,SBD,Single-ply,Open,F,
10,Yuliya Efimenko,Юлия Ефименко,1998,56.55,140,70,142.5,352.5,57,SBD,Single-ply,Open,F,
11,Maya Charyeva,Мая Чарыева,1992,56.85,145,70,130,345,57,SBD,Single-ply,Open,F,
12,Nadezhda Demidova,Надежда Демидова,1997,56.3,140,85,115,340,57,SBD,Single-ply,Open,F,
13,Kseniya Saveleva,Ксения Савельева,1992,54.55,135,85,117.5,337.5,57,SBD,Single-ply,Open,F,
14,Elena Polichuk,Елена Поличук,1962,55.6,110,55,110,275,57,SBD,Single-ply,Open,F,
15,Irina Anufrieva,Ирина Ануфриева,1999,56.2,115,57.5,102.5,275,57,SBD,Single-ply,Open,F,
16,Yuliya Fayzulina,Юлия Файзулина,1983,54.5,97.5,55,100,252.5,57,SBD,Single-ply,Open,F,
17,Anna Grebenets,Анна Гребенец,1991,55.2,95,52.5,100,247.5,57,SBD,Single-ply,Open,F,
DQ,Natalya Vasetskaya,Наталья Васецкая,1992,55.8,140,,135,,57,SBD,Single-ply,Open,F,
DQ,Ekaterina Volkova,Екатерина Волкова,1999,55.45,120,,,,57,SBD,Single-ply,Open,F,
DQ,Aleksandra Makovleva,Александра Маковлева,1986,55.9,127.5,,,,57,SBD,Single-ply,Open,F,
DQ,Irina Safina,Ирина Сафина,1995,56.8,147.5,,,,57,SBD,Single-ply,Open,F,
DQ,Natalya Agapova,Наталья Агапова,1978,56.1,,,,,57,SBD,Single-ply,Open,F,
1,Ekaterina Yashkina,Екатерина Яшкина,1992,58.25,160,110,167.5,437.5,63,SBD,Single-ply,Open,F,
2,Natalya Rassokha,Наталья Рассоха,1994,62,175,95,162.5,432.5,63,SBD,Single-ply,Open,F,
3,Yuliya Bakhvalova,Юлия Бахвалова,1991,62.9,172.5,90,170,432.5,63,SBD,Single-ply,Open,F,
4,Irina Kulikova,Ирина Куликова,1989,61.95,165,75,170,410,63,SBD,Single-ply,Open,F,
5,Irina Mosyagina,Ирина Мосягина,1995,62.15,157.5,90,155,402.5,63,SBD,Single-ply,Open,F,
6,Dina Zakharova,Дина Захарова,1989,62.3,170,97.5,135,402.5,63,SBD,Single-ply,Open,F,
7,Ekaterina Negasheva,Екатерина Негашева,1998,62,155,117.5,127.5,400,63,SBD,Single-ply,Open,F,
8,Darya Loktionova,Дарья Локтионова,1985,61.75,155,82.5,152.5,390,63,SBD,Single-ply,Open,F,
9,Ekaterina Galieva,Екатерина Галиева,1985,62.4,157.5,87.5,145,390,63,SBD,Single-ply,Open,F,
10,Alena Dzhevalo,Алена Джевало,1993,62.8,147.5,82.5,160,390,63,SBD,Single-ply,Open,F,
11,Elvira Ivanova,Эльвира Иванова,1984,62.65,160,87.5,137.5,385,63,SBD,Single-ply,Open,F,
12,Olesya Yaroslavtseva,Олеся Ярославцева,1981,60.55,137.5,77.5,160,375,63,SBD,Single-ply,Open,F,
13,Marina Ryabtseva,Марина Рябцева,1992,61.25,152.5,77.5,145,375,63,SBD,Single-ply,Open,F,
14,Olesya Butusova,Олеся Бутусова,1988,62.65,132.5,85,155,372.5,63,SBD,Single-ply,Open,F,
15,Ekaterina Pustovit,Екатерина Пустовит,1998,61.4,157.5,87.5,125,370,63,SBD,Single-ply,Open,F,
16,Kristina Sidorova,Кристина Сидорова,1998,62.4,157.5,90,122.5,370,63,SBD,Single-ply,Open,F,
17,Elena Valieva,Елена Валиева,1978,62.5,150,85,130,365,63,SBD,Single-ply,Open,F,
18,Tatyana Kashtanova,Татьяна Каштанова,2002,60.9,130,95,130,355,63,SBD,Single-ply,Open,F,
19,Kristina Menshova,Кристина Меньшова,2002,61.05,135,80,140,355,63,SBD,Single-ply,Open,F,
20,Yuliya Ivanova,Юлия Иванова,1992,62.4,135,80,130,345,63,SBD,Single-ply,Open,F,
21,Evgeniya Galkina,Евгения Галкина,1990,62.75,130,75,137.5,342.5,63,SBD,Single-ply,Open,F,
22,Valeriya Volobueva,Валерия Волобуева,1988,62.6,125,82.5,132.5,340,63,SBD,Single-ply,Open,F,
23,Irina Pronina,Ирина Пронина,1985,63,135,70,135,340,63,SBD,Single-ply,Open,F,
24,Oksana Zaytseva,Оксана Зайцева,1993,61.8,107.5,60,122.5,290,63,SBD,Single-ply,Open,F,
25,Kseniya Semnova,Ксения Семнова,1989,62.75,135,55,85,275,63,SBD,Single-ply,Open,F,
DQ,Eva Slukina,Ева Слукина,2000,61.45,,,,,63,SBD,Single-ply,Open,F,
DQ,Kseniya Lobanova,Ксения Лобанова,1992,62.85,,,,,63,SBD,Single-ply,Open,F,
DQ,Nadezhda Kolokoltseva,Надежда Колокольцева,1987,63,,,,,63,SBD,Single-ply,Open,F,
1,Yuliya Pogodina,Юлия Погодина,1998,70.8,195.5,120,197.5,513,72,SBD,Single-ply,Open,F,
2,Tatyana Slatova,Татьяна Слатова,1981,71,200,132.5,180,512.5,72,SBD,Single-ply,Open,F,
3,Antonina Tolasova,Антонина Толасова,1970,71.6,180,122.5,177.5,480,72,SBD,Single-ply,Open,F,
4,Yuliya Dudkina,Юлия Дудкина,1988,70.85,172.5,100,175,447.5,72,SBD,Single-ply,Open,F,
5,Lada Chetvergova,Лада Четвергова,1992,70.75,170,100,157.5,427.5,72,SBD,Single-ply,Open,F,
6,Mariya Lebedeva,Мария Лебедева,1996,71.75,180,90,152.5,422.5,72,SBD,Single-ply,Open,F,
7,Elizaveta Kapuskina,Елизавета Капускина,1997,71.75,165,85,150,400,72,SBD,Single-ply,Open,F,
8,Ekaterina Kochina,Екатерина Кочина,1990,70.35,170,97.5,130,397.5,72,SBD,Single-ply,Open,F,
9,Anna Rekachinskaya,Анна Рекачинская,2000,71.1,160,92.5,145,397.5,72,SBD,Single-ply,Open,F,
10,Nataliya Dyatel,Наталия Дятел,1988,71.5,145,90,140,375,72,SBD,Single-ply,Open,F,
11,Kristina Borovikova,Кристина Боровикова,1999,66.6,130,77.5,145,352.5,72,SBD,Single-ply,Open,F,
12,Tatyana Zolotova,Татьяна Золотова,1987,71.25,130,80,120,330,72,SBD,Single-ply,Open,F,
DQ,Alena Fedorova,Алена Федорова,1975,71.3,130,,,,72,SBD,Single-ply,Open,F,
1,Ekaterina Bratus,Екатерина Братусь,1991,80.4,217.5,150,195,562.5,84,SBD,Single-ply,Open,F,
2,Anastasiya Nazareva,Анастасия Назарёва,1998,83.2,200,110,170,480,84,SBD,Single-ply,Open,F,
3,Regina Ibatullina,Регина Ибатуллина,1995,76.75,180,100,180,460,84,SBD,Single-ply,Open,F,
4,Ekaterina Knyazeva,Екатерина Князева,2002,82.85,170,117.5,160,447.5,84,SBD,Single-ply,Open,F,
5,Olga Malikova,Ольга Маликова,1978,80.05,145,100,150,395,84,SBD,Single-ply,Open,F,
6,Svetlana Kadun,Светлана Кадун,1986,82.95,160,82.5,135,377.5,84,SBD,Single-ply,Open,F,
7,Yuliya Ivanova,Юлия Иванова,1986,76.45,130,90,155,375,84,SBD,Single-ply,Open,F,
8,Margarita Nefedova,Маргарита Нефедова,1995,78.45,120,65,132.5,317.5,84,SBD,Single-ply,Open,F,
DQ,Yuliya Fedotova,Юлия Федотова,1983,77.85,155,,,,84,SBD,Single-ply,Open,F,
DQ,Nadezhda Zhirnova,Надежда Жирнова,1983,82.05,,,,,84,SBD,Single-ply,Open,F,
1,Darya Radina,Дарья Радина,1987,92.25,215,147.5,192.5,555,84+,SBD,Single-ply,Open,F,
2,Olga Kashina,Ольга Кашина,1980,96.3,200,110,200,510,84+,SBD,Single-ply,Open,F,
3,Zarine Karakhanyan,Зарине Караханян,1993,102.7,185,125,190,500,84+,SBD,Single-ply,Open,F,
4,Kseniya Khlebunova,Ксения Хлебунова,1992,98.65,200,117.5,180,497.5,84+,SBD,Single-ply,Open,F,
5,Maryana Bondar,Марьяна Бондарь,1987,103.55,180,132.5,162.5,475,84+,SBD,Single-ply,Open,F,
6,Marina Somova #1,Марина Сомова,1979,95.5,180,105,150,435,84+,SBD,Single-ply,Open,F,
7,Yuliya Nelyubova,Юлия Нелюбова,1995,106.1,165,90,167.5,422.5,84+,SBD,Single-ply,Open,F,
DQ,Tatyana Reznichenko,Татьяна Резниченко,1987,92.3,135,,,,84+,SBD,Single-ply,Open,F,
1,Kurban Saidov,Курбан Саидов,1999,57.5,210,152.5,207.5,570,59,SBD,Single-ply,Open,M,
2,Azamat Asultanov,Азамат Асултанов,1997,58.05,210,145,215,570,59,SBD,Single-ply,Open,M,
3,Dmitriy Rozhkov,Дмитрий Рожков,1993,58.4,180,152.5,190,522.5,59,SBD,Single-ply,Open,M,
4,Ramil Khalliulov,Рамиль Халлиулов,1988,58.25,170,135,190,495,59,SBD,Single-ply,Open,M,
5,Evgeniy Gorchakov,Евгений Горчаков,1997,51.65,145,90,140,375,59,SBD,Single-ply,Open,M,
1,Sergey Znamenshchikov,Сергей Знаменщиков,1996,65.9,230,165,210,605,66,SBD,Single-ply,Open,M,
2,Sergey Vinogradov,Сергей Виноградов,1996,65.75,200,120,205,525,66,SBD,Single-ply,Open,M,
3,Georgiy Prokhorov,Георгий Прохоров,1990,64.9,195,160,167.5,522.5,66,SBD,Single-ply,Open,M,
4,Ilya Yasakov,Илья Ясаков,1994,63.75,200,115,205,520,66,SBD,Single-ply,Open,M,
5,Sergey Kuznetsov #21,Сергей Кузнецов,2000,65.7,135,95,180,410,66,SBD,Single-ply,Open,M,
DQ,Yaroslav Dmitriev,Ярослав Дмитриев,2000,65.6,145,,,,66,SBD,Single-ply,Open,M,
DQ,Ernest Ibragimov,Эрнест Ибрагимов,1998,64.55,,,,,66,SBD,Single-ply,Open,M,
1,Nikolay Zhmurov,Николай Жмуров,1985,73.45,287.5,195,242.5,725,74,SBD,Single-ply,Open,M,
2,Igor Dolzhenko #1,Игорь Долженко,1988,73.95,280,215,230,725,74,SBD,Single-ply,Open,M,
3,Sergey Vavilov,Сергей Вавилов,1989,73.5,277.5,177.5,250,705,74,SBD,Single-ply,Open,M,
4,Dmitriy Voronov,Дмитрий Воронов,1987,73.75,255,182.5,257.5,695,74,SBD,Single-ply,Open,M,
5,Anton Golubenko,Антон Голубенко,1994,73.85,262.5,155,250,667.5,74,SBD,Single-ply,Open,M,
6,Ilnur Fazlyev,Ильнур Фазлыев,1993,73.8,265,175,225,665,74,SBD,Single-ply,Open,M,
7,Pavel Popov,Павел Попов,1995,73.6,235,155,235,625,74,SBD,Single-ply,Open,M,
8,Dmitriy Kislyakov,Дмитрий Кисляков,1997,71.05,230,160,230,620,74,SBD,Single-ply,Open,M,
9,Gevorg Danelyan,Геворг Данелян,1996,73.75,235,155,205,595,74,SBD,Single-ply,Open,M,
10,Maksim Shuvalov,Максим Шувалов,1997,73.1,187.5,165,185,537.5,74,SBD,Single-ply,Open,M,
11,Pavel Balyatinskiy,Павел Балятинский,1996,73.4,175,180,182.5,537.5,74,SBD,Single-ply,Open,M,
12,Sergey Vasilev,Сергей Васильев,1981,71.15,197.5,125,190,512.5,74,SBD,Single-ply,Open,M,
DQ,Pyotr Akimkin,Пётр Акимкин,1994,72.35,240,,,,74,SBD,Single-ply,Open,M,
DQ,Denis Khakimov,Динис Хакимов,1988,72.65,265,,,,74,SBD,Single-ply,Open,M,
DQ,Ilya Ergin,Илья Ергин,1992,73.65,230,,,,74,SBD,Single-ply,Open,M,
DQ,Igor Bondarenko,Игорь Бондаренко,1984,69.8,,,,,74,SBD,Single-ply,Open,M,
DQ,Yusup Kurbanov,Юсуп Курбанов,1992,73.6,,,,,74,SBD,Single-ply,Open,M,
DQ,Kirill Nikitin,Кирилл Никитин,1992,74,,,,,74,SBD,Single-ply,Open,M,
1,Dmitriy Maksimov,Дмитрий Максимов,1995,82.5,307.5,202.5,290,800,83,SBD,Single-ply,Open,M,
2,Aleksandr Perezhogin,Александр Пережогин,1978,82.15,310,207.5,275,792.5,83,SBD,Single-ply,Open,M,
3,Karen Muradyan,Карен Мурадян,1984,81.1,290,225,270,785,83,SBD,Single-ply,Open,M,
4,Vladislav Filatov,Владислав Филатов,1997,82.85,310,200,275,785,83,SBD,Single-ply,Open,M,
5,Artyom Veyble,Артём Вейбле,1997,82.45,295,210,270,775,83,SBD,Single-ply,Open,M,
6,Ivan Rastorguev,Иван Расторгуев,1987,82.5,277.5,210,270,757.5,83,SBD,Single-ply,Open,M,
7,Maksim Alekseev #1,Максим Алексеєв,1998,82.8,290,200,265,755,83,SBD,Single-ply,Open,M,
8,Sergey Rakhimov,Сергей Рахимов,1994,82.15,267.5,210,275,752.5,83,SBD,Single-ply,Open,M,
9,Aleksandr Kokornov,Александр Кокорнов,1964,81.35,287.5,187.5,272.5,747.5,83,SBD,Single-ply,Open,M,
10,Gleb Tarasov,Глеб Тарасов,1992,82.65,300,197.5,250,747.5,83,SBD,Single-ply,Open,M,
11,Marat Rafikov,Марат Рафиков,1988,83,287.5,175,285,747.5,83,SBD,Single-ply,Open,M,
12,Evgeniy Ivanov #12,Евгений Иванов,1991,83,270,200,260,730,83,SBD,Single-ply,Open,M,
13,Aleksandr Tsyplakov,Александр Цыплаков,1998,82.2,255,220,245,720,83,SBD,Single-ply,Open,M,
14,Daniil Zhbanov,Даниил Жбанов,1999,82.5,260,200,242.5,702.5,83,SBD,Single-ply,Open,M,
15,Stas Stepanov,Стас Степанов,1985,82.05,255,160,275,690,83,SBD,Single-ply,Open,M,
16,Dmitriy Kiselev,Дмитрий Киселев,1989,82.2,265,180,240,685,83,SBD,Single-ply,Open,M,
17,Nikolay Chaltsev,Николай Чальцев,1994,81.55,240,190,250,680,83,SBD,Single-ply,Open,M,
18,Nikita Chistyakov,Никита Чистяков,1993,82.6,235,190,235,660,83,SBD,Single-ply,Open,M,
19,Vyacheslav Chirik,Вячеслав Чирик,1989,81.2,240,180,230,650,83,SBD,Single-ply,Open,M,
20,Yakov Rubtsov,Яков Рубцов,1996,82.45,222.5,150,265,637.5,83,SBD,Single-ply,Open,M,
21,Andrey Kostromtsov,Андрей Костромцов,1982,82.8,240,165,225,630,83,SBD,Single-ply,Open,M,
22,Aleksandr Panyukov,Александр Панюков,1989,81.75,230,155,240,625,83,SBD,Single-ply,Open,M,
23,Yuriy Pudan,Юрий Пудан,1994,81,205,155,240,600,83,SBD,Single-ply,Open,M,
24,Farid Volkov,Фарид Волков,1992,80.85,225,150,210,585,83,SBD,Single-ply,Open,M,
25,Aleksey Karpenko,Алексей Карпенко,1994,82.75,230,140,212.5,582.5,83,SBD,Single-ply,Open,M,
26,Evgeniy Butvin,Евгений Бутвин,1990,81.3,210,140,220,570,83,SBD,Single-ply,Open,M,
27,Yaroslav Storozhenko,Ярослав Стороженко,1988,81.85,205,150,200,555,83,SBD,Single-ply,Open,M,
28,Sergey Skobelev,Сергей Скобелев,1979,76.8,200,140,200,540,83,SBD,Single-ply,Open,M,
DQ,Aleksey Skasyrskov,Алексей Скасырсков,1978,81.1,265,190,,,83,SBD,Single-ply,Open,M,
DQ,Evgeniy Shestakov,Евгений Шестаков,1989,82.2,260,205,,,83,SBD,Single-ply,Open,M,
DQ,Daniil Komarov,Даниил Комаров,1994,82.6,260,145,,,83,SBD,Single-ply,Open,M,
DQ,Artyom Polyanskiy,Артём Полянский,1992,82.6,285,190,,,83,SBD,Single-ply,Open,M,
DQ,Vladimir Yakovlev,Владимир Яковлев,1986,79.65,255,,,,83,SBD,Single-ply,Open,M,
DQ,Artem Rogozhin,Артем Рогожин,1990,81.5,260,,,,83,SBD,Single-ply,Open,M,
DQ,Artur Ovanesyan,Артур Ованесян,1993,81.4,,,,,83,SBD,Single-ply,Open,M,
DQ,Roman Trushnikov,Роман Трушников,1996,81.95,,,,,83,SBD,Single-ply,Open,M,
1,Aleksandr Rodionov,Александр Родионов,1988,92.6,310,265,300,875,93,SBD,Single-ply,Open,M,
2,Anvar Bagmanov,Анвар Багманов,1988,90.3,345,220,300,865,93,SBD,Single-ply,Open,M,
3,Aleksey Sidorov,Алексей Сидоров,1990,91.6,340,230,290,860,93,SBD,Single-ply,Open,M,
4,Akhmet Kurbanov,Ахмет Курбанов,1992,91.25,330,240,280,850,93,SBD,Single-ply,Open,M,
5,Maksim Ivanov #3,Максим Иванов,1979,92.95,315,247.5,280,842.5,93,SBD,Single-ply,Open,M,
6,Aleksey Lupulenko,Алексей Лупуленко,1987,92.4,332.5,227.5,275,835,93,SBD,Single-ply,Open,M,
7,Oleg Lupa,Олег Лупа,1991,91.05,330,210,275,815,93,SBD,Single-ply,Open,M,
8,Aleksey Fedotov,Алексей Федотов,1982,91.95,300,210,290,800,93,SBD,Single-ply,Open,M,
9,Vladislav Kovalev,Владислав Ковалев,1996,90.8,310,190,295,795,93,SBD,Single-ply,Open,M,
10,Vladislav Dibdin,Владислав Дибдин,1993,90.95,302.5,202.5,282.5,787.5,93,SBD,Single-ply,Open,M,
11,Ilya Koryakovtsev,Илья Коряковцев,1982,91.65,295,217.5,275,787.5,93,SBD,Single-ply,Open,M,
12,Samir Babaev,Самир Бабаев,1994,92.1,295,235,257.5,787.5,93,SBD,Single-ply,Open,M,
13,Ilya Musalev,Илья Мусалев,1995,92.3,295,195,297.5,787.5,93,SBD,Single-ply,Open,M,
14,Igor Lavrov,Игорь Лавров,1990,92.45,292.5,187.5,307.5,787.5,93,SBD,Single-ply,Open,M,
15,Vladimir Karpenko,Владимир Карпенко,1986,92.85,295,210,282.5,787.5,93,SBD,Single-ply,Open,M,
16,Oleg Layter,Олег Лайтер,1974,90.65,270,230,260,760,93,SBD,Single-ply,Open,M,
17,Eduard Pushkarev,Эдуард Пушкарев,1968,92.55,270,207.5,275,752.5,93,SBD,Single-ply,Open,M,
18,Maksim Timonin,Максим Тимонин,1981,91.8,280,202.5,265,747.5,93,SBD,Single-ply,Open,M,
19,Aleksey Grushin,Алексей Грушин,1981,91.7,277.5,220,240,737.5,93,SBD,Single-ply,Open,M,
20,Ilya Korobov,Илья Коробов,1980,90.4,250,200,265,715,93,SBD,Single-ply,Open,M,
21,Ivan Baryshnikov,Иван Барышников,1995,91.4,290,200,220,710,93,SBD,Single-ply,Open,M,
22,Vladimir Grigorev,Владимир Григорьев,1973,90.9,270,175,250,695,93,SBD,Single-ply,Open,M,
23,Ivan Ponomaryov,Иван Пономарёв,1997,89.25,250,185,255,690,93,SBD,Single-ply,Open,M,
24,Igor Khavronichev,Игорь Хавроничев,1982,92.75,275,175,235,685,93,SBD,Single-ply,Open,M,
25,Sergey Savin,Сергей Савин,1981,91.7,272.5,140,260,672.5,93,SBD,Single-ply,Open,M,
26,Mark Chukhlomin,Марк Чухломин,1994,88.7,265,165,232.5,662.5,93,SBD,Single-ply,Open,M,
27,Leonid Kozlov,Леонид Козлов,1988,89.3,250,195,212.5,657.5,93,SBD,Single-ply,Open,M,
28,Andrey Ptichkin,Андрей Птичкин,1993,92.5,250,180,220,650,93,SBD,Single-ply,Open,M,
29,Maksim Ruzaev,Максим Рузаев,1993,87.85,217.5,180,250,647.5,93,SBD,Single-ply,Open,M,
30,Ivan Fedorov,Иван Федоров,1992,91.45,240,152.5,245,637.5,93,SBD,Single-ply,Open,M,
31,Mikhail Gnatyuk,Михаил Гнатюк,1975,92,255,155,220,630,93,SBD,Single-ply,Open,M,
32,Mark Seremin,Марк Серемин,1990,88.95,250,145,225,620,93,SBD,Single-ply,Open,M,
33,Anatoliy Popov,Анатолий Попов,1985,90.2,230,160,230,620,93,SBD,Single-ply,Open,M,
34,Vyacheslav Zbutevich,Вячеслав Збутевич,1988,92.5,235,160,225,620,93,SBD,Single-ply,Open,M,
35,Kirill Dorkin,Кирилл Доркин,2000,89.65,217.5,162.5,237.5,617.5,93,SBD,Single-ply,Open,M,
36,Aleksandr Kurkov,Александр Курков,1997,88.7,240,130,240,610,93,SBD,Single-ply,Open,M,
37,Pavel Zalov,Павел Залов,1996,91.15,230,150,220,600,93,SBD,Single-ply,Open,M,
38,Konstantin Gukhman,Константин Гухман,1981,92.85,215,152.5,225,592.5,93,SBD,Single-ply,Open,M,
39,Aleksey Leyzerovich,Алексей Лейзерович,1978,89.6,230,122.5,227.5,580,93,SBD,Single-ply,Open,M,
40,Vitaliy Turkin,Виталий Туркин,1993,92,210,145,220,575,93,SBD,Single-ply,Open,M,
DQ,Evgeniy Magazov,Евгений Магазов,1984,92.4,300,200,,,93,SBD,Single-ply,Open,M,
DQ,Nikolay Bertov,Николай Бертов,1985,86.4,240,,,,93,SBD,Single-ply,Open,M,
DQ,Igor Kuzmin,Игорь Кузьмин,1988,87.5,195,,,,93,SBD,Single-ply,Open,M,
DQ,Aleksandr Shkurinskiy,Александр Шкуринский,1981,88.4,240,,,,93,SBD,Single-ply,Open,M,
DQ,Aleksey Suranov,Алексей Суранов,1980,91.35,220,,,,93,SBD,Single-ply,Open,M,
DQ,Denis Sosnovskiy,Денис Сосновский,1993,91.7,290,,,,93,SBD,Single-ply,Open,M,
DQ,Pavel Lisichkin,Павел Лисичкин,1976,92.1,282.5,,,,93,SBD,Single-ply,Open,M,
DQ,Aleksandr Kashtanov,Александр Каштанов,1993,92.1,300,,,,93,SBD,Single-ply,Open,M,
DQ,Andrey Aksenov,Андрей Аксенов,1986,92.25,275,,,,93,SBD,Single-ply,Open,M,
DQ,Aleksandr Altymbaev,Александр Алтымбаев,1994,92.7,300,,,,93,SBD,Single-ply,Open,M,
DQ,Oleg Titov,Олег Титов,1994,93,285,,,,93,SBD,Single-ply,Open,M,
DQ,Dmitriy Kashitsyn,Дмитрий Кашицын,1989,89.2,,,,,93,SBD,Single-ply,Open,M,
DQ,Ivan Shishkin,Иван Шишкин,1983,90.85,,,,,93,SBD,Single-ply,Open,M,
DQ,Dmitriy Petrov,Дмитрий Петров,1996,91.75,,,,,93,SBD,Single-ply,Open,M,
DQ,Vladimir Akhtyrskiy,Владимир Ахтырский,1993,91.85,,,,,93,SBD,Single-ply,Open,M,
DQ,Vyacheslav Karpov,Вячеслав Карпов,1985,91.9,,,,,93,SBD,Single-ply,Open,M,
DQ,Sergey Raznitsyn,Сергей Разницын,1988,92.4,,,,,93,SBD,Single-ply,Open,M,
DQ,Aleksey Kamalov,Алексей Камалов,1988,93,,,,,93,SBD,Single-ply,Open,M,
1,Aleksandr Gorokhovskiy,Александр Гороховский,1989,103.6,375,265,320,960,105,SBD,Single-ply,Open,M,
2,Timur Fedotov,Тимур Федотов,1990,104.9,355,225,340,920,105,SBD,Single-ply,Open,M,
3,Andrey Myagkov,Андрей Мягков,1990,102.45,340,282.5,260,882.5,105,SBD,Single-ply,Open,M,
4,Vitaliy Martynyuk,Виталий Мартынюк,1996,104.75,325,210,300,835,105,SBD,Single-ply,Open,M,
5,Denis Davydov,Денис Давыдов,1993,99.1,325,225,280,830,105,SBD,Single-ply,Open,M,
6,Aleksey Korpachev,Алексей Корпачев,1989,101.6,300,252.5,272.5,825,105,SBD,Single-ply,Open,M,
7,Ilya Kazantsev,Илья Казанцев,1992,104.65,335,200,290,825,105,SBD,Single-ply,Open,M,
8,Ivan Asandi,Иван Асанди,1979,100.7,300,225,290,815,105,SBD,Single-ply,Open,M,
9,Artem Samatov,Артем Саматов,1985,103.75,280,225,310,815,105,SBD,Single-ply,Open,M,
10,Ivan Baranov #4,Иван Баранов,1984,101.9,295,217.5,277.5,790,105,SBD,Single-ply,Open,M,
11,Denis Kallonen,Денис Каллонен,1979,102.7,290,230,270,790,105,SBD,Single-ply,Open,M,
12,Yuriy Mukhin,Юрий Мухин,1995,104.35,275,225,290,790,105,SBD,Single-ply,Open,M,
13,Aleksey Martsinkevich,Алексей Марцинкевич,1986,103.5,300,185,300,785,105,SBD,Single-ply,Open,M,
14,Sergey Vologdin,Сергей Вологдин,1991,102.2,290,205,270,765,105,SBD,Single-ply,Open,M,
15,Andrey Tumanov,Андрей Туманов,1995,103.35,300,205,260,765,105,SBD,Single-ply,Open,M,
16,Dmitriy Kotsalaynen,Дмитрий Котсалайнен,1977,103.45,290,205,265,760,105,SBD,Single-ply,Open,M,
17,Tomas Rudnitskiy,Томас Рудницкий,1989,104.3,290,200,270,760,105,SBD,Single-ply,Open,M,
18,Vitaliy Shiryaev,Виталий Ширяев,1994,103.25,250,180,315,745,105,SBD,Single-ply,Open,M,
19,Pavel Bulygin,Павел Булыгин,1983,103.9,280,185,280,745,105,SBD,Single-ply,Open,M,
20,Nikolay Stetsyuk,Николай Стецюк,1985,97.95,280,190,270,740,105,SBD,Single-ply,Open,M,
21,Dzhalil Eyvazov,Джалил Эйвазов,1993,97.95,280,170,280,730,105,SBD,Single-ply,Open,M,
22,Sergey Bochanov,Сергей Бочанов,1995,97.55,245,192.5,285,722.5,105,SBD,Single-ply,Open,M,
23,Dmitriy Vasyukevich,Дмитрий Васюкевич,1980,98.65,265,200,250,715,105,SBD,Single-ply,Open,M,
24,Marat Akhmetov,Марат Ахметов,1989,101.85,280,180,252.5,712.5,105,SBD,Single-ply,Open,M,
25,Ivan Poptsov,Иван Попцов,1985,99.5,240,227.5,242.5,710,105,SBD,Single-ply,Open,M,
26,Aleksey Shidlovskiy,Алексей Шидловский,1986,104.1,250,232.5,225,707.5,105,SBD,Single-ply,Open,M,
27,Sergey Rodionov,Сергей Родионов,1981,103.5,260,175,270,705,105,SBD,Single-ply,Open,M,
28,Stepan Kukushkin,Степан Кукушкин,1997,104.8,265,182.5,240,687.5,105,SBD,Single-ply,Open,M,
29,Igor Bolgov,Игорь Болгов,1992,103.85,240,185,250,675,105,SBD,Single-ply,Open,M,
30,Igor Tugolukov,Игорь Туголуков,1989,104.6,245,190,237.5,672.5,105,SBD,Single-ply,Open,M,
31,Anatoliy Kuftyrev,Анатолий Куфтырев,1987,103.05,250,170,250,670,105,SBD,Single-ply,Open,M,
32,Aleksey Skuryatin,Алексей Скурятин,1987,104.55,260,190,220,670,105,SBD,Single-ply,Open,M,
33,Igor Remizov,Игорь Ремизов,1989,104.4,265,195,205,665,105,SBD,Single-ply,Open,M,
34,Sergey Ranskiy,Сергей Ранский,1978,102.85,232.5,200,227.5,660,105,SBD,Single-ply,Open,M,
35,Yuriy Kozhubaev,Юрий Кожубаев,1983,103.75,250,185,220,655,105,SBD,Single-ply,Open,M,
36,Aleksandr Agafonov,Александр Агафонов,1991,101.05,215,150,230,595,105,SBD,Single-ply,Open,M,
37,Roman Zhulyabin,Роман Жулябин,1996,103.5,215,150,230,595,105,SBD,Single-ply,Open,M,
DQ,Denis Starshov,Денис Старшов,1990,102.9,250,195,,,105,SBD,Single-ply,Open,M,
DQ,Anton Monakhov,Антон Монахов,1992,104.35,267.5,187.5,,,105,SBD,Single-ply,Open,M,
DQ,Konstantin Chekasin,Константин Чекасин,1992,104.85,335,230,,,105,SBD,Single-ply,Open,M,
DQ,Denis Lukyanchenko,Денис Лукьянченко,1991,99.5,270,,,,105,SBD,Single-ply,Open,M,
DQ,Andrey Malakhovskiy,Андрей Малаховский,1980,102.1,282.5,,,,105,SBD,Single-ply,Open,M,
DQ,Denis Zhigulin,Денис Жигулин,1989,102.55,320,,,,105,SBD,Single-ply,Open,M,
DQ,Aleksandr Spitsin,Александр Спицин,1988,104.25,310,,,,105,SBD,Single-ply,Open,M,
DQ,Maksim Sorokin,Максим Сорокин,1992,97.25,,,,,105,SBD,Single-ply,Open,M,
DQ,Vladimir Kolotvin,Владимир Колотвин,1987,97.9,,,,,105,SBD,Single-ply,Open,M,
DQ,Aleksey Lemishka,Алексей Лемишка,1989,98.3,,,,,105,SBD,Single-ply,Open,M,
DQ,Kupriyan Zhdanov,Куприян Жданов,1991,100.1,,,,,105,SBD,Single-ply,Open,M,
DQ,Kirill Kudachkin,Кирилл Кудачкин,1985,104.05,,,,,105,SBD,Single-ply,Open,M,
1,Amirkhan Amirkhanov,Амирхан Амирханов,1986,117.85,410,277.5,345,1032.5,120,SBD,Single-ply,Open,M,
2,Vadim Tishkin,Вадим Тишкин,1992,120,375,275,330,980,120,SBD,Single-ply,Open,M,
3,Denis Vikulev,Денис Викульев,1985,115.9,345,260,365,970,120,SBD,Single-ply,Open,M,
4,Dmitriy Kosarenkov,Дмитрий Косаренков,1987,119.1,335,262.5,290,887.5,120,SBD,Single-ply,Open,M,
5,Ivan Yanushkevich,Иван Янушкевич,1986,117.15,300,240,330,870,120,SBD,Single-ply,Open,M,
6,Nikita Ryabukha,Никита Рябуха,1991,116.5,320,210,327.5,857.5,120,SBD,Single-ply,Open,M,
7,Artyom Nikonorov,Артём Никоноров,1994,115,315,217.5,310,842.5,120,SBD,Single-ply,Open,M,
8,Roman Solomin,Роман Соломин,1987,112.7,315,225,300,840,120,SBD,Single-ply,Open,M,
9,Igor Ivanov #9,Игорь Иванов,1986,113.85,330,250,255,835,120,SBD,Single-ply,Open,M,
10,Dmitriy Sakov,Дмитрий Саков,1980,118.45,332.5,200,302.5,835,120,SBD,Single-ply,Open,M,
11,Andrey Nikandrov,Андрей Никандров,1990,119.05,310,227.5,297.5,835,120,SBD,Single-ply,Open,M,
12,Konstantin Poduzov,Константин Подузов,1979,111.5,325,225,260,810,120,SBD,Single-ply,Open,M,
13,Tagir Kilmamatov,Тагир Кильмаматов,1996,115.1,320,200,280,800,120,SBD,Single-ply,Open,M,
14,Aleksandr Skripnichenko,Александр Скрипниченко,1981,108,285,230,265,780,120,SBD,Single-ply,Open,M,
15,Anton Kostelov,Антон Костелов,1971,111.45,280,232.5,260,772.5,120,SBD,Single-ply,Open,M,
16,Maksim Dvornikov,Максим Дворников,1980,114.55,290,205,267.5,762.5,120,SBD,Single-ply,Open,M,
17,Denis Akmaev,Денис Акмаев,1986,106.5,275,200,275,750,120,SBD,Single-ply,Open,M,
18,Dmitriy Osipov,Дмитрий Осипов,1990,110.55,285,220,240,745,120,SBD,Single-ply,Open,M,
19,Aleksey Tsyrenshchikov,Алексей Цыренщиков,1996,113.7,280,230,235,745,120,SBD,Single-ply,Open,M,
20,Artur Bayron,Артур Байрон,1989,110.3,265,200,270,735,120,SBD,Single-ply,Open,M,
21,Andrey Korovnikov,Андрей Коровников,1983,116.55,270,162.5,280,712.5,120,SBD,Single-ply,Open,M,
22,Vladimir Ivanov,Владимир Иванов,1972,113.65,260,180,270,710,120,SBD,Single-ply,Open,M,
23,Svyatoslav Ivanov,Святослав Иванов,1985,114.95,260,175,265,700,120,SBD,Single-ply,Open,M,
24,Ilya Chernyakov,Илья Черняков,1986,117.6,250,165,250,665,120,SBD,Single-ply,Open,M,
25,Vladimir Korobov,Владимир Коробов,1989,118.9,225,210,225,660,120,SBD,Single-ply,Open,M,
DQ,Vitaliy Balashov,Виталий Балашов,1988,110,330,245,,,120,SBD,Single-ply,Open,M,
DQ,Denis Nikitinskiy,Денис Никитинский,1997,111,305,200,,,120,SBD,Single-ply,Open,M,
DQ,Semen Pakhtusov,Семен Пахтусов,1996,111.4,330,205,,,120,SBD,Single-ply,Open,M,
DQ,Evgeniy Pronin,Евгений Пронин,1991,111.65,300,205,,,120,SBD,Single-ply,Open,M,
DQ,Vladislav Kurakin,Владислав Куракин,1993,114.45,,252.5,305,,120,SBD,Single-ply,Open,M,
DQ,Kirill Zheleznyy,Кирилл Железный,1984,118.25,320,,240,,120,SBD,Single-ply,Open,M,
DQ,Andrey Lopota,Андрей Лопота,1997,115.05,,,,,120,SBD,Single-ply,Open,M,
DQ,Maksim Mikhaylov,Максим Михайлов,1989,116.6,,,,,120,SBD,Single-ply,Open,M,
DQ,Nikita Tokvel,Никита Токвель,1988,116.9,,,,,120,SBD,Single-ply,Open,M,
DQ,Andrey Polyakov,Андрей Поляков,1989,118.5,,,,,120,SBD,Single-ply,Open,M,
DQ,Anton Demidov,Антон Демидов,1984,119.15,,,,,120,SBD,Single-ply,Open,M,
1,Nikolay Bykov,Николай Быков,1976,139.9,350,280,345,975,120+,SBD,Single-ply,Open,M,
2,Andrey Ushakov,Андрей Ушаков,1980,139.1,300,270,345,915,120+,SBD,Single-ply,Open,M,
3,Konstantin Vymorkov,Константин Выморков,1977,128.65,330,290,282.5,902.5,120+,SBD,Single-ply,Open,M,
4,Dmitriy Kozlov #1,Дмитрий Козлов,1981,157.7,335,277.5,280,892.5,120+,SBD,Single-ply,Open,M,
5,Mark Araslanov,Марк Арасланов,1993,132.75,330,240,320,890,120+,SBD,Single-ply,Open,M,
6,Georgiy Kuznetsov,Георгий Кузнецов,1981,128.1,340,215,322.5,877.5,120+,SBD,Single-ply,Open,M,
7,Aleksey Klevakin,Алексей Клевакин,1990,159.75,340,265,255,860,120+,SBD,Single-ply,Open,M,
8,Aleksey Belov,Алексей Белов,1989,120.35,315,240,300,855,120+,SBD,Single-ply,Open,M,
9,Stanislav Pedash,Станислав Педаш,1972,131.3,300,250,300,850,120+,SBD,Single-ply,Open,M,
10,Nikita Gorodilov,Никита Городилов,1994,120.6,320,240,280,840,120+,SBD,Single-ply,Open,M,
11,Nikolay Maksimov,Николай Максимов,1988,133.6,290,210,285,785,120+,SBD,Single-ply,Open,M,
12,Dmitriy Glushkov,Дмитрий Глушков,1997,130.55,300,210,255,765,120+,SBD,Single-ply,Open,M,
DQ,Pavel Matskul,Павел Мацкул,1990,133,310,,,,120+,SBD,Single-ply,Open,M,
DQ,Aleksandr Mokeev,Александр Мокеев,1981,145.75,380,,,,120+,SBD,Single-ply,Open,M,
DQ,Sergey Petrov,Сергей Петров,1987,128.85,,,,,120+,SBD,Single-ply,Open,M,
DQ,Vladimir Bogdanovskiy,Владимир Богдановский,1985,129.2,,,,,120+,SBD,Single-ply,Open,M,
DQ,Ivan Ryabenkov,Иван Рябенков,1996,136.65,,,,,120+,SBD,Single-ply,Open,M,
