Division,WeightClassKg,Place,Name,Team,BodyweightKg,Best3SquatKg,Best3BenchKg,Best3DeadliftKg,TotalKg,Equipment,Event,Sex
Boys,51.71,1,Adan Silvas,McCamey,49.44,88.45,49.9,111.13,249.48,Single-ply,SBD,M
Boys,51.71,2,Michael Hosch,McCamey,45.36,63.5,34.02,86.18,183.7,Single-ply,SBD,M
Boys,51.71,DQ,Ezekiel Sosa,Big Lake Reagan County,49.44,113.4,,,,Single-ply,SBD,M
Boys,55.79,1,Jesse Ramirez #2,San Angelo Lake View,55.34,145.15,88.45,167.83,401.43,Single-ply,SBD,M
Boys,55.79,2,Kevin Buitron,Sonora,55.79,122.47,81.65,158.76,362.87,Single-ply,SBD,M
Boys,55.79,3,Brandon Lee,San Angelo Lake View,55.34,131.54,61.23,142.88,335.66,Single-ply,SBD,M
Boys,55.79,4,Ezekiel Garcia,McCamey,55.34,127.01,72.57,127.01,326.59,Single-ply,SBD,M
Boys,55.79,5,Gus Barrera,Sonora,55.34,104.33,54.43,122.47,281.23,Single-ply,SBD,M
Boys,55.79,6,Aaron Rivera,San Angelo Lake View,53.07,95.25,54.43,113.4,263.08,Single-ply,SBD,M
Boys,59.87,1,Austin Martinez,Mertzon Irion County,59.42,170.1,111.13,183.7,464.93,Single-ply,SBD,M
Boys,59.87,2,Dominique Dalbert,San Angelo Central,59.87,151.95,86.18,176.9,415.04,Single-ply,SBD,M
Boys,59.87,3,Glenn Crowder,Iraan,56.25,102.06,65.77,147.42,315.25,Single-ply,SBD,M
Boys,59.87,4,Devynn Mejia,San Angelo Grape Creek,56.7,108.86,47.63,99.79,256.28,Single-ply,SBD,M
Boys,59.87,DQ,Meeko Gonzalez,Sonora,59.87,120.2,,145.15,,Single-ply,SBD,M
Boys,67.13,1,Ryan Hurst,San Angelo Grape Creek,66.22,226.8,97.52,217.72,542.04,Single-ply,SBD,M
Boys,67.13,2,Zach Perez,Ballinger,66.22,190.51,117.93,215.46,523.9,Single-ply,SBD,M
Boys,67.13,3,Michael Vargas,Ozona,63.05,199.58,108.86,190.51,498.95,Single-ply,SBD,M
Boys,67.13,4,John Jurado,Ozona,65.77,181.44,86.18,176.9,444.52,Single-ply,SBD,M
Boys,67.13,5,Edson DeHoyas,San Angelo Central,63.05,163.29,97.52,163.29,424.11,Single-ply,SBD,M
Boys,67.13,6,Austin Ramirez,Iraan,64.41,170.1,74.84,174.63,419.57,Single-ply,SBD,M
Boys,67.13,7,Sean Schaefer,Ballinger,66.68,165.56,90.72,161.03,417.3,Single-ply,SBD,M
Boys,67.13,8,Stephan Medrano,San Angelo Grape Creek,67.13,149.69,81.65,172.37,403.7,Single-ply,SBD,M
Boys,67.13,9,Robert Sauceda,San Angelo Central,66.22,158.76,83.91,147.42,390.09,Single-ply,SBD,M
Boys,67.13,10,Stephen Seely,San Angelo Lake View,61.69,136.08,81.65,165.56,383.29,Single-ply,SBD,M
Boys,67.13,11,Juan Marquez,Big Lake Reagan County,65.77,140.61,86.18,147.42,374.21,Single-ply,SBD,M
Boys,67.13,12,Aaron Kelly,San Angelo Grape Creek,60.78,140.61,77.11,149.69,367.41,Single-ply,SBD,M
Boys,67.13,13,Sam Weatherby,Big Lake Reagan County,66.22,117.93,83.91,158.76,360.61,Single-ply,SBD,M
Boys,67.13,14,Jamie Nunez,McCamey,67.13,140.61,72.57,147.42,360.61,Single-ply,SBD,M
Boys,67.13,15,Dusty Strictland,Christoval,66.68,113.4,74.84,156.49,344.73,Single-ply,SBD,M
Boys,67.13,16,Roger Gehrels,Eldorado,61.23,122.47,65.77,136.08,324.32,Single-ply,SBD,M
Boys,67.13,17,Isaac Rodriguez,McCamey,61.69,77.11,52.16,106.59,235.87,Single-ply,SBD,M
Boys,74.84,1,Angel Moreno,San Angelo Lake View,69.85,217.72,111.13,204.12,532.97,Single-ply,SBD,M
Boys,74.84,2,Willie Collins,Ballinger,69.4,190.51,113.4,188.24,492.15,Single-ply,SBD,M
Boys,74.84,3,Morgan Lytle,Christoval,73.03,190.51,95.25,195.04,480.81,Single-ply,SBD,M
Boys,74.84,4,Jose Armendariz,San Angelo Grape Creek,71.67,188.24,99.79,188.24,476.27,Single-ply,SBD,M
Boys,74.84,5,Hank Levison,Mertzon Irion County,73.48,192.78,86.18,174.63,453.59,Single-ply,SBD,M
Boys,74.84,6,Brett Castillo,Sonora,74.84,170.1,97.52,183.7,451.32,Single-ply,SBD,M
Boys,74.84,7,Steven Kirk,Ballinger,74.39,149.69,102.06,165.56,417.3,Single-ply,SBD,M
Boys,74.84,8,Kevin O'Dell,San Angelo Grape Creek,74.39,142.88,97.52,165.56,405.97,Single-ply,SBD,M
Boys,74.84,9,Kobe Roberson,Big Lake Reagan County,69.85,154.22,86.18,163.29,403.7,Single-ply,SBD,M
Boys,74.84,10,Adam Multer,Ballinger,68.49,149.69,79.38,163.29,392.36,Single-ply,SBD,M
Boys,74.84,11,Aliq DeLeon,McCamey,73.94,136.08,86.18,163.29,385.55,Single-ply,SBD,M
Boys,74.84,12,Cole Covey,San Angelo Grape Creek,74.84,124.74,58.97,129.27,312.98,Single-ply,SBD,M
Boys,74.84,13,Deonn Fuentes,Eldorado,74.39,117.93,56.7,117.93,292.57,Single-ply,SBD,M
Boys,74.84,DQ,Reagan Luce,Barksdale Nueces Canyon,72.94,,,,,Single-ply,SBD,M
Boys,74.84,DQ,Phillip Carleton,Barksdale Nueces Canyon,73.57,,,,,Single-ply,SBD,M
Boys,82.1,1,Devon Hoelscher,Ballinger,77.56,206.38,142.88,195.04,544.31,Single-ply,SBD,M
Boys,82.1,2,Caleb Hudson,San Angelo Lake View,77.56,174.63,111.13,213.19,498.95,Single-ply,SBD,M
Boys,82.1,3,Richard Ruschenberg,San Angelo Grape Creek,79.83,199.58,102.06,190.51,492.15,Single-ply,SBD,M
Boys,82.1,4,Josh Molina,McCamey,79.83,176.9,102.06,185.97,464.93,Single-ply,SBD,M
Boys,82.1,5,Trenton Gardener,Big Lake Reagan County,77.56,188.24,97.52,176.9,462.66,Single-ply,SBD,M
Boys,82.1,6,Joaquin Rivero,San Angelo Central,77.56,172.37,104.33,156.49,433.18,Single-ply,SBD,M
Boys,82.1,7,Fabian Gomez,Eldorado,79.38,158.76,102.06,163.29,424.11,Single-ply,SBD,M
Boys,82.1,8,Ben Holden,Ballinger,81.65,154.22,95.25,145.15,394.63,Single-ply,SBD,M
Boys,82.1,9,Dustin Pruit,Christoval,77.56,147.42,79.38,147.42,374.21,Single-ply,SBD,M
Boys,82.1,10,Felix Guerra,Sonora,77.11,127.01,81.65,145.15,353.8,Single-ply,SBD,M
Boys,82.1,DQ,Will Evans,Barksdale Nueces Canyon,80.01,,,,,Single-ply,SBD,M
Boys,89.81,1,Marcos Rodarte,San Angelo Grape Creek,88.9,258.55,111.13,217.72,587.4,Single-ply,SBD,M
Boys,89.81,2,Angel Aguilera,Big Lake Reagan County,84.37,219.99,108.86,208.65,537.51,Single-ply,SBD,M
Boys,89.81,3,John Cuellar,Ballinger,88,201.85,106.59,192.78,501.22,Single-ply,SBD,M
Boys,89.81,4,Robert Reyes,Iraan,89.36,179.17,97.52,208.65,485.34,Single-ply,SBD,M
Boys,89.81,5,Rigoberto Rodriguez,Ozona,89.36,195.04,88.45,188.24,471.74,Single-ply,SBD,M
Boys,89.81,6,Daniel Lambrana,Ozona,83.46,179.17,102.06,165.56,446.79,Single-ply,SBD,M
Boys,89.81,DQ,Isaiah DeLeon,Barksdale Nueces Canyon,87,,,,,Single-ply,SBD,M
Boys,89.81,DQ,Trevor Ward,Barksdale Nueces Canyon,85.18,,,,,Single-ply,SBD,M
Boys,99.79,1,Auggie Woodruff,Ballinger,92.08,263.08,165.56,219.99,648.64,Single-ply,SBD,M
Boys,99.79,2,Haziel Damian,Ozona,97.07,242.67,106.59,210.92,560.19,Single-ply,SBD,M
Boys,99.79,3,Matt Garcia,Mertzon Irion County,95.71,204.12,136.08,195.04,535.24,Single-ply,SBD,M
Boys,99.79,4,Blas Guerro,San Angelo Central,92.08,197.31,111.13,174.63,483.08,Single-ply,SBD,M
Boys,99.79,5,Brandon Dominguez,Ozona,93.44,201.85,102.06,179.17,483.08,Single-ply,SBD,M
Boys,99.79,6,Tailor Hunt,San Angelo Central,97.98,199.58,99.79,181.44,480.81,Single-ply,SBD,M
Boys,99.79,7,Nate Newton,San Angelo Central,90.26,192.78,106.59,174.63,474,Single-ply,SBD,M
Boys,99.79,8,Caleb Evans,Barksdale Nueces Canyon,98.16,158.76,117.93,181.44,458.13,Single-ply,SBD,M
Boys,99.79,9,Ethan Patlan,Sonora,92.08,163.29,113.4,179.17,455.86,Single-ply,SBD,M
Boys,99.79,10,Michael Ortiz,Iraan,93.89,151.95,92.99,192.78,437.72,Single-ply,SBD,M
Boys,109.77,1,Aaron Allen #2,San Angelo Lake View,109.77,290.3,133.81,290.3,714.41,Single-ply,SBD,M
Boys,109.77,2,Adrian Hernandez #2,San Angelo Grape Creek,102.97,222.26,102.06,204.12,528.44,Single-ply,SBD,M
Boys,109.77,3,Elijah Cross,Sonora,100.7,204.12,113.4,199.58,517.1,Single-ply,SBD,M
Boys,109.77,4,Juan Onate,Barksdale Nueces Canyon,102.33,181.44,131.54,201.85,514.83,Single-ply,SBD,M
Boys,109.77,5,Zak Taylor,Ozona,102.97,172.37,92.99,170.1,435.45,Single-ply,SBD,M
Boys,109.77,6,Jaime Chancellor,Eldorado,106.59,156.49,81.65,154.22,392.36,Single-ply,SBD,M
Boys,109.77,DQ,Stephen Dominguez,Sonora,109.32,190.51,136.08,,,Single-ply,SBD,M
Boys,124.74,1,Riley Woodruff,Ballinger,113.4,299.37,147.42,260.82,707.6,Single-ply,SBD,M
Boys,124.74,2,Kelton Bales,Eldorado,121.56,254.01,120.2,215.46,589.67,Single-ply,SBD,M
Boys,124.74,3,Christian Delgado,San Angelo Lake View,117.48,233.6,133.81,206.38,573.79,Single-ply,SBD,M
Boys,124.74,4,Joseph Brooks,San Angelo Central,116.57,215.46,120.2,217.72,553.38,Single-ply,SBD,M
Boys,124.74,5,Tres Perez,Ozona,111.13,233.6,120.2,192.78,546.58,Single-ply,SBD,M
Boys,124.74,6,Michael Graham,Ozona,110.22,190.51,117.93,170.1,478.54,Single-ply,SBD,M
Boys,124.74+,1,Daniel Schlather,San Angelo Lake View,125.19,233.6,131.54,217.72,582.87,Single-ply,SBD,M
Boys,124.74+,2,Braulio Vargas,Eldorado,127.91,185.97,113.4,170.1,469.47,Single-ply,SBD,M
Boys,124.74+,3,Carlos Puga,San Angelo Central,151.05,195.04,102.06,172.37,469.47,Single-ply,SBD,M
Boys,,NS,Clayten Crabb,Ballinger,,,,,,Single-ply,SBD,M
Boys,,NS,Ryder Sawyer,Iraan,,,,,,Single-ply,SBD,M
Boys,,NS,Steven Dela Cruz,Big Lake Reagan County,,,,,,Single-ply,SBD,M
Boys,,NS,Josh Garcia,San Angelo Central,,,,,,Single-ply,SBD,M
Boys,,NS,Brandon DeHoyos,Ozona,,,,,,Single-ply,SBD,M
Boys,,NS,Jacob Nino,San Angelo Central,,,,,,Single-ply,SBD,M
Boys,,NS,Chris Cantu,Ozona,,,,,,Single-ply,SBD,M
Boys,,NS,Kendall Hartman,Iraan,,,,,,Single-ply,SBD,M
Boys,,NS,Mark Hudson,San Angelo Lake View,,,,,,Single-ply,SBD,M
Boys,,NS,Caleb Saldivar,San Angelo Grape Creek,,,,,,Single-ply,SBD,M
Boys,,NS,Jesus Vasquez,Sonora,,,,,,Single-ply,SBD,M
Boys,,NS,John Hernandez,San Angelo Lake View,,,,,,Single-ply,SBD,M
Boys,,NS,Michael Chavez,Sonora,,,,,,Single-ply,SBD,M
Boys,,NS,Eric Garcia,Sonora,,,,,,Single-ply,SBD,M
Boys,,NS,Luke West,San Angelo Central,,,,,,Single-ply,SBD,M
