WeightClassKg,Sex,Name,BirthDate,BodyweightKg,Bench1Kg,Bench2Kg,Bench3Kg,Bench4Kg,Best3BenchKg,TotalKg,Event,Equipment,Division,Place
48,M,Charles Nwobodo,1982-11-09,46.4,150,155,157.5,,157.5,157.5,B,Raw,Open,5
48,M,Yakubu Adesokan,1979-07-16,45.7,155,-160,-160,,155,155,B,Raw,Open,6
48,M,Samuel Ekeoma,1981-01-02,42.1,150,155,157.5,,157.5,157.5,B,Raw,Open,4
48,M,Mathias Umoh,1971-09-09,45.6,155,157.5,160,,160,160,B,Raw,Open,1
48,M,Kashimawo Balogun,1983-11-15,47.5,155,-160,160,,160,160,B,Raw,Open,3
48,M,Ruel Ishaku,1967-01-11,47.3,150,155,160,,160,160,B,Raw,Open,2
52,M,Chinedu Oti,1984-05-05,51.2,150,155,-157.5,,155,155,B,Raw,Open,1
52,M,Emeka Akamiro,1988-11-18,51.7,-155,-155,-155,,,,B,Raw,Open,DQ
52,M,Friday Moses,1982-10-10,51.6,-60,60,-65,,60,60,B,Raw,Open,2
56,M,Hyacient Nnaji,1982-09-09,54.4,145,-147.5,-147.5,,145,145,B,Raw,Open,5
56,M,Paul Kehinde,1988-07-07,53.9,150,155,-162.5,,155,155,B,Raw,Open,4
56,M,Pam Linus,1981-02-02,54,167.5,170,-172.5,,170,170,B,Raw,Open,1
56,M,Wale Kadiri,1988-05-14,53.4,162.5,-165,165,,165,165,B,Raw,Open,2
56,M,Robert Abbey,1988-06-07,55.4,140,-150,-150,,140,140,B,Raw,Open,6
56,M,Peter Aham,1978-09-21,52.2,155,-160,-162.5,,155,155,B,Raw,Open,3
60,M,Lucky Ediagbonya,1981-05-18,59.8,-150,150,155,,155,155,B,Raw,Open,3
60,M,Sunday Otuka,1980-07-04,57.3,172.5,175,177.5,,177.5,177.5,B,Raw,Open,1
60,M,Fatai Salawu,1974-10-27,57.2,-170,170,-175,,170,170,B,Raw,Open,2
60,M,Abiodun Oluyeba,1980-01-02,56.7,135,140,-142.5,,140,140,B,Raw,Open,4
67.5,M,Iyke Ibeh,1975-11-26,62.7,165,170,175,,175,175,B,Raw,Open,4
67.5,M,Tolu-Lope Taiwo,1986-09-04,62,170,-177.5,182.5,,182.5,182.5,B,Raw,Open,1
67.5,M,Sodiq Animasaun,1976-01-08,65.1,170,177.5,182.5,,182.5,182.5,B,Raw,Open,2
67.5,M,Jibirin Malau,1986-06-03,65.3,175,-180,180,,180,180,B,Raw,Open,3
67.5,M,Tunde Obesuwa,1978-07-20,63.3,165,170,-175,,170,170,B,Raw,Open,5
67.5,M,Vincent Chapman,1980-03-28,64.4,-110,-110,110,,110,110,B,Raw,Open,6
40,F,Lucy Ihuoma,1984-08-28,38.1,95,-100,100,,100,100,B,Raw,Open,1
40,F,Dupe Cole,1972-02-20,38.9,80,-90,90,,90,90,B,Raw,Open,2
40,F,Esther Sunday,1987-12-01,39.2,85,-90,90,,90,90,B,Raw,Open,3
44,F,Ijeoma John,1984-09-16,42.9,95,100,102.5,,102.5,102.5,B,Raw,Open,1
44,F,Ivory Nwaokire,1977-03-18,41.3,85,92.5,95,,95,95,B,Raw,Open,2
44,F,Chizoba Igweka,1989-08-18,43.3,-95,-95,95,,95,95,B,Raw,Open,3
44,F,Flora Ugwunwa,1983-06-26,42.1,-90,90,-95,,90,90,B,Raw,Open,4
48,F,Lucy Ogechukwu Ejike,1977-10-16,47,100,110,115,,115,115,B,Raw,Open,1
48,F,Philomena Edomwondagbon,1985-10-21,45.6,-100,-100,100,,100,100,B,Raw,Open,2
48,F,Temitayo Adebayo,1977-01-28,47.2,50,55,65,,65,65,B,Raw,Open,3
52,F,Ndidi Nwosu,1980-05-01,50.5,115,120,-122.5,,120,120,B,Raw,Open,1
52,F,Joy Onaolapo,1983-12-24,48.8,112.5,115,-120,,115,115,B,Raw,Open,2
52,F,Omotola Falodun,1988-05-30,49.6,75,-82.5,-82.5,,75,75,B,Raw,Open,4
52,F,Eno-Obongg Peter,1977-03-01,52,-80,80,82.5,,82.5,82.5,B,Raw,Open,3
56,F,Iyabo Ismaila,1974-12-12,54.5,115,120,122.5,,122.5,122.5,B,Raw,Open,1
56,F,Oluchi Ajomiwe,1980-03-23,54.8,90,-95,-95,,90,90,B,Raw,Open,3
56,F,Osamwenyobor Arasomwon,1983-02-22,54.8,-100,105,-107.5,,105,105,B,Raw,Open,2
56,F,Lois Auta,1984-04-29,55.4,40,45,60,,60,60,B,Raw,Open,4
60,F,Patience Igbiti,1977-02-22,58.6,-117.5,117.5,-120,,117.5,117.5,B,Raw,Open,1
60,F,Virgina Azu,1980-05-27,59,-112.5,-112.5,112.5,,112.5,112.5,B,Raw,Open,2
60,F,Jenifer Afubera,1996-01-01,58.9,70,75,-77.5,,75,75,B,Raw,Open,3
67.5,F,Joy Oriemezie,1983-05-23,64.1,110,-115,115,,115,115,B,Raw,Open,3
67.5,F,Blessing Nwakamma,1985-04-14,66,115,-120,-122.5,,115,115,B,Raw,Open,4
67.5,F,Ijeoma Iherobiem,1978-05-12,63.1,115,120,122.5,,122.5,122.5,B,Raw,Open,2
67.5,F,Victoria Nneji,1972-06-05,63.3,125,130,135,,135,135,B,Raw,Open,1
67.5,F,Deborah Sosanya,1992-08-31,63,60,65,-72.5,,65,65,B,Raw,Open,5
75,F,Loveline Adaure Obiji,1983-09-11,68.6,110,115,-120,,115,115,B,Raw,Open,2
75,F,Shade Oluwafemi,1982-03-11,73.7,125,130,-135,,130,130,B,Raw,Open,1
75,F,Chichi Oguike,1976-06-07,68.6,100,-110,-110,,100,100,B,Raw,Open,3
75,F,Chika Chime,1976-07-17,70.9,85,-90,,,85,85,B,Raw,Open,4
82.5,F,Glory Onyeabor,1981-07-25,82,120,-125,125,,125,125,B,Raw,Open,2
82.5,F,Sola Adefala,1982-11-15,82.4,115,-122.5,-122.5,,115,115,B,Raw,Open,3
82.5,F,Godstime Egbuchilem,1988-10-10,79.5,110,-115,-115,,110,110,B,Raw,Open,4
82.5,F,Perpetua Okonkwo,1984-04-10,80.1,90,-95,,,90,90,B,Raw,Open,5
82.5,F,Kikelomo Ogunbamowo,1970-07-08,76.2,115,125,127.5,,127.5,127.5,B,Raw,Open,1
82.5+,F,Grace Ebere Anozie,1977-07-16,113.5,150,155,157.5,162.5,157.5,157.5,B,Raw,Open,1
82.5+,F,Precious Orji,1979-04-08,114.2,140,150,-155,,150,150,B,Raw,Open,2
82.5+,F,Yemisi Salami,1972-03-31,119.1,-100,100,,,100,100,B,Raw,Open,4
82.5+,F,Chinyere Eko,1984-09-28,95.5,-100,100,-115,,100,100,B,Raw,Open,3
75,M,Osahon Edosomwan,1981-02-19,72.9,165,-170,170,,170,170,B,Raw,Open,5
75,M,Friday Ozoemena,1983-03-27,69,,,,,,,B,Raw,Open,DQ
75,M,Wilson Monday,1985-05-05,70.2,170,180,185,,185,185,B,Raw,Open,2
75,M,Oluwole Olubile,1975-07-01,71.7,175,180,190,,190,190,B,Raw,Open,1
75,M,Adeniyi Omokpekunole,1984-05-01,69.2,160,170,-172.5,,170,170,B,Raw,Open,4
75,M,Daniel Omogbi,1979-07-20,73.6,170,-175,-175,,170,170,B,Raw,Open,6
75,M,Niyi Jegede,1982-10-09,75,-140,140,-145,,140,140,B,Raw,Open,7
75,M,Anthony Imbimoh,1980-08-04,73.3,160,170,,,170,170,B,Raw,Open,3
82.5,M,Uchechukwu Achi,1980-07-07,79.3,170,175,180,,180,180,B,Raw,Open,1
82.5,M,Bethel Uwaede,1975-01-29,75.5,-170,170,-175,,170,170,B,Raw,Open,2
82.5,M,Musa Muhammed,1981-01-29,81.3,-160,160,-165,,160,160,B,Raw,Open,3
90,M,Solomon Amarakuo,1976-08-18,88.7,215,220,230,,230,230,B,Raw,Open,1
90,M,Abdulazeez Ibrahim,1978-08-10,85,190,205,210,,210,210,B,Raw,Open,2
90,M,Okechukwu Alfa,1986-12-26,83.5,180,200,205,,205,205,B,Raw,Open,3
100,M,Obioma Daleth Aligekwe,1978-12-17,96,200,230,,,230,230,B,Raw,Open,1
100,M,Ifeanyi Okasia,1989-03-04,92.5,120,130,135,,135,135,B,Raw,Open,2
100+,M,Ini Ekpenyong,1983-06-20,104.5,190,200,-205,,200,200,B,Raw,Open,1
100+,M,Ayuba Puja,1986-03-07,102.2,170,180,190,,190,190,B,Raw,Open,2
