Division,WeightClassKg,Place,Name,Team,BodyweightKg,Best3SquatKg,Best3BenchKg,Best3DeadliftKg,TotalKg,Equipment,Event,Sex
Girls,44.23,1,Lizeth Melendez,Springtown,41.05,88.45,40.82,104.33,233.6,Single-ply,SBD,F
Girls,44.23,2,Ana Rodriquez,Chico,42.86,72.57,36.29,79.38,188.24,Single-ply,SBD,F
Girls,44.23,3,Lizbeth Melendez,Springtown,38.78,72.57,27.22,86.18,185.97,Single-ply,SBD,F
Girls,44.23,4,Taylor Ates,Lake Worth,43.09,65.77,29.48,74.84,170.1,Single-ply,SBD,F
Girls,44.23,5,Dakota Byrd,Decatur,44.23,58.97,34.02,77.11,170.1,Single-ply,SBD,F
Girls,44.23,6,Mackenzie Molina,Lake Worth,43.54,61.23,29.48,65.77,156.49,Single-ply,SBD,F
Girls,44.23,7,Grace Windham,Graham,43.77,61.23,29.48,61.23,151.95,Single-ply,SBD,F
Girls,47.85,1,Jessica Ragan,Bowie,47.85,97.52,47.63,106.59,251.74,Single-ply,SBD,F
Girls,47.85,2,Jazmone Butler,Lake Worth,47.4,92.99,45.36,106.59,244.94,Single-ply,SBD,F
Girls,47.85,3,Alli Roglin,Springtown,46.95,90.72,40.82,97.52,229.06,Single-ply,SBD,F
Girls,47.85,4,Kylie Robinson,Bowie,46.04,77.11,38.56,97.52,213.19,Single-ply,SBD,F
Girls,47.85,5,Kati Roglin,Springtown,46.72,83.91,43.09,79.38,206.38,Single-ply,SBD,F
Girls,47.85,6,Makenna Wise,Paradise,47.4,68.04,47.63,81.65,197.31,Single-ply,SBD,F
Girls,47.85,7,Erika Aranda,Castleberry,45.13,70.31,40.82,74.84,185.97,Single-ply,SBD,F
Girls,47.85,8,Courtney Stevens,Muenster,45.13,63.5,31.75,58.97,154.22,Single-ply,SBD,F
Girls,47.85,DQ,Suzetthe Flores,Lake Worth,47.17,79.38,29.48,,,Single-ply,SBD,F
Girls,47.85,DQ,McKenna Myers,Bridgeport,46.49,72.57,,77.11,,Single-ply,SBD,F
Girls,51.94,1,Madison Shook,Graham,51.71,111.13,54.43,122.47,288.03,Single-ply,SBD,F
Girls,51.94,2,Mikela Beck,Paradise,51.03,97.52,45.36,117.93,260.82,Single-ply,SBD,F
Girls,51.94,3,Alexis Simmons,Decatur,50.8,92.99,40.82,108.86,242.67,Single-ply,SBD,F
Girls,51.94,4,Alli York,Chico,48.99,90.72,45.36,99.79,235.87,Single-ply,SBD,F
Girls,51.94,5,Rachel Salazar,Castleberry,51.94,83.91,47.63,83.91,215.46,Single-ply,SBD,F
Girls,51.94,6,Carressa McCastland,Paradise,51.26,65.77,40.82,90.72,197.31,Single-ply,SBD,F
Girls,51.94,7,Kelsey Sitz,Archer City,48.76,81.65,45.36,68.04,195.04,Single-ply,SBD,F
Girls,51.94,8,Britton Petty,Chico,51.03,72.57,27.22,86.18,185.97,Single-ply,SBD,F
Girls,56.02,1,Logan Garcia #1,Lake Worth,54.43,124.74,49.9,120.2,294.84,Single-ply,SBD,F
Girls,56.02,2,Charlye Biggerstaff,Chico,55.79,111.13,45.36,111.13,267.62,Single-ply,SBD,F
Girls,56.02,3,Kirstin Nanny,Decatur,54.43,106.59,45.36,111.13,263.08,Single-ply,SBD,F
Girls,56.02,4,Kailyn Carwile,Paradise,55.34,102.06,45.36,113.4,260.82,Single-ply,SBD,F
Girls,56.02,5,Chayton Seabourn,Springtown,55.11,95.25,47.63,113.4,256.28,Single-ply,SBD,F
Girls,56.02,6,Camry Larriviere,Lake Worth,53.98,92.99,40.82,115.67,249.48,Single-ply,SBD,F
Girls,56.02,7,Lacey Erwin,Bridgeport,55.57,97.52,49.9,92.99,240.4,Single-ply,SBD,F
Girls,56.02,8,Jordan Vidal,Chico,55.79,99.79,38.56,102.06,240.4,Single-ply,SBD,F
Girls,56.02,9,Harley Goodner,Jacksboro,55.79,79.38,40.82,111.13,231.33,Single-ply,SBD,F
Girls,56.02,10,Carcyn Robertson,Bowie,54.66,92.99,45.36,90.72,229.06,Single-ply,SBD,F
Girls,56.02,11,Logan Self,Archer City,55.57,92.99,45.36,88.45,226.8,Single-ply,SBD,F
Girls,56.02,12,Valerie Neal,Chico,55.11,81.65,43.09,95.25,219.99,Single-ply,SBD,F
Girls,56.02,13,Amber Huff,Chico,55.79,83.91,34.02,97.52,215.46,Single-ply,SBD,F
Girls,56.02,14,Emily Pennartz,Petrolia,54.88,81.65,40.82,90.72,213.19,Single-ply,SBD,F
Girls,56.02,15,Angelica Hernandez,Castleberry,56.02,83.91,36.29,88.45,208.65,Single-ply,SBD,F
Girls,56.02,16,Raven Leal,Chico,55.79,81.65,38.56,81.65,201.85,Single-ply,SBD,F
Girls,56.02,DQ,Shelbi Rhoda,Bowie,55.57,104.33,,,,Single-ply,SBD,F
Girls,56.02,DQ,Reba Atkins,Graham,52.39,63.5,,,,Single-ply,SBD,F
Girls,56.02,DQ,Audrie Howard,Paradise,52.84,88.45,,,,Single-ply,SBD,F
Girls,60.1,1,Jocelyn Pando,Springtown,59.65,136.08,58.97,131.54,326.59,Single-ply,SBD,F
Girls,60.1,2,Breann Hall,Chico,59.65,111.13,49.9,106.59,267.62,Single-ply,SBD,F
Girls,60.1,3,Jazmin Puryear,Lake Worth,57.83,99.79,45.36,111.13,256.28,Single-ply,SBD,F
Girls,60.1,4,Matison Rhodes,Chico,59.87,77.11,56.7,104.33,238.14,Single-ply,SBD,F
Girls,60.1,5,Savanna Wilson,Graham,58.29,92.99,40.82,99.79,233.6,Single-ply,SBD,F
Girls,60.1,6,Elissa Duren,Archer City,58.51,92.99,45.36,81.65,219.99,Single-ply,SBD,F
Girls,60.1,7,Kayla Bransom,Castleberry,59.42,81.65,43.09,90.72,215.46,Single-ply,SBD,F
Girls,60.1,8,Caroline Ramsey,Petrolia,58.97,81.65,43.09,83.91,208.65,Single-ply,SBD,F
Girls,60.1,9,Alexis Hamm,Decatur,58.29,81.65,36.29,79.38,197.31,Single-ply,SBD,F
Girls,60.1,10,Jennifer Martinez #10,Chico,59.87,61.23,38.56,90.72,190.51,Single-ply,SBD,F
Girls,60.1,11,Erica Ozuna,Castleberry,58.74,65.77,40.82,77.11,183.7,Single-ply,SBD,F
Girls,60.1,12,Felicia Coleman,Bridgeport,60.1,49.9,38.56,77.11,165.56,Single-ply,SBD,F
Girls,60.1,DQ,Angelica Camacho,Graham,58.06,,,,,Single-ply,SBD,F
Girls,67.36,1,Deanna Walterscheid,Paradise,67.36,147.42,65.77,129.27,342.46,Single-ply,SBD,F
Girls,67.36,2,Taylor Richey,Bowie,61.23,124.74,54.43,122.47,301.64,Single-ply,SBD,F
Girls,67.36,3,Corey Tate,Chico,63.28,117.93,47.63,113.4,278.96,Single-ply,SBD,F
Girls,67.36,4,Jocelyn Trejo,Lake Worth,66.68,108.86,58.97,111.13,278.96,Single-ply,SBD,F
Girls,67.36,5,Elise McCombs,Lake Worth,66.9,92.99,52.16,133.81,278.96,Single-ply,SBD,F
Girls,67.36,6,Kendall Childers,Decatur,65.77,102.06,45.36,111.13,258.55,Single-ply,SBD,F
Girls,67.36,7,Allyson Jordan,Decatur,62.14,99.79,45.36,102.06,247.21,Single-ply,SBD,F
Girls,67.36,8,Hannah Wilett,Alvord,63.96,92.99,45.36,102.06,240.4,Single-ply,SBD,F
Girls,67.36,9,Merceds Concha,Castleberry,64.64,90.72,45.36,95.25,231.33,Single-ply,SBD,F
Girls,67.36,10,Guirnalda Lopez,Decatur,62.14,79.38,47.63,102.06,229.06,Single-ply,SBD,F
Girls,67.36,11,Mollie Looper,Alvord,60.55,72.57,43.09,102.06,217.72,Single-ply,SBD,F
Girls,67.36,12,Abby Pennartz,Petrolia,62.82,83.91,31.75,86.18,201.85,Single-ply,SBD,F
Girls,67.36,13,Sara Binford,Muenster,67.13,77.11,40.82,79.38,197.31,Single-ply,SBD,F
Girls,67.36,14,Breana Hawkins,Petrolia,63.28,72.57,31.75,86.18,190.51,Single-ply,SBD,F
Girls,67.36,15,Perla Villanueva,Chico,63.96,90.72,36.29,97.52,224.53,Single-ply,SBD,F
Girls,67.36,16,Alejandra Medrano,Castleberry,60.55,65.77,34.02,77.11,176.9,Single-ply,SBD,F
Girls,67.36,DQ,Paola Johnson,Castleberry,65.77,,,58.97,,Single-ply,SBD,F
Girls,75.07,1,Melissa Perrone,Springtown,74.16,170.1,74.84,142.88,387.82,Single-ply,SBD,F
Girls,75.07,2,Malaina Cruz,Lake Worth,73.94,131.54,68.04,129.27,328.85,Single-ply,SBD,F
Girls,75.07,3,Hannah Shaw,Bowie,68.72,129.27,54.43,124.74,308.44,Single-ply,SBD,F
Girls,75.07,4,Paige Dickinson,Decatur,69.85,117.93,61.23,117.93,297.1,Single-ply,SBD,F
Girls,75.07,5,Sydney Wilhelm,Archer City,71.89,113.4,45.36,124.74,283.5,Single-ply,SBD,F
Girls,75.07,6,Alex Sullivan-Green,Bridgeport,70.53,104.33,56.7,120.2,281.23,Single-ply,SBD,F
Girls,75.07,7,Heidi Spann,Chico,70.53,106.59,49.9,122.47,278.96,Single-ply,SBD,F
Girls,75.07,8,Jessica Shaw,Petrolia,73.26,90.72,40.82,92.99,224.53,Single-ply,SBD,F
Girls,75.07,9,Caylen Miracle,Archer City,69.85,52.16,36.29,70.31,158.76,Single-ply,SBD,F
Girls,75.07,DQ,Shayna Sherman,Alvord,70.53,102.06,,97.52,,Single-ply,SBD,F
Girls,82.33,1,Martha Chavez,Springtown,82.1,167.83,77.11,140.61,385.55,Single-ply,SBD,F
Girls,82.33,2,Kristen Massey,Lake Worth,80.06,129.27,61.23,136.08,326.59,Single-ply,SBD,F
Girls,82.33,3,Rhiannon Howard,Bridgeport,75.75,104.33,56.7,117.93,278.96,Single-ply,SBD,F
Girls,82.33,4,Natalie Hofsiss,Alvord,75.3,113.4,45.36,117.93,276.69,Single-ply,SBD,F
Girls,82.33,5,Lauren Yzaguirre,Alvord,78.93,88.45,47.63,92.99,229.06,Single-ply,SBD,F
Girls,82.33,6,Alandra Garcia,Chico,75.93,61.23,29.48,90.72,181.44,Single-ply,SBD,F
Girls,90.04,1,Tabi Rogers,Springtown,89.58,124.74,72.57,129.27,326.59,Single-ply,SBD,F
Girls,90.04,2,Analilia Ortiz,Castleberry,85.28,83.91,43.09,95.25,222.26,Single-ply,SBD,F
Girls,90.04,3,Chelsea Mast,Chico,89.86,81.65,38.56,95.25,215.46,Single-ply,SBD,F
Girls,100.02,1,Meagan Paschal,Graham,92.53,113.4,49.9,117.93,281.23,Single-ply,SBD,F
Girls,100.02,2,Cheyenne Hale,Chico,99.97,99.79,47.63,117.93,265.35,Single-ply,SBD,F
Girls,100.02+,1,Maria Melendez,Graham,137.67,158.76,65.77,140.61,365.14,Single-ply,SBD,F
Girls,100.02+,2,Destiny Whitworth,Decatur,140.84,142.88,74.84,145.15,362.87,Single-ply,SBD,F
Girls,100.02+,3,Vanessa Martinez,Decatur,117.03,129.27,68.04,138.35,335.66,Single-ply,SBD,F
Girls,100.02+,4,Catlin Lewis,Graham,106.59,131.54,61.23,133.81,326.59,Single-ply,SBD,F
Girls,100.02+,5,Jessica Redwine,Chico,120.66,108.86,61.23,122.47,292.57,Single-ply,SBD,F
Girls,100.02+,6,China Brattis,Chico,116.12,99.79,58.97,111.13,269.89,Single-ply,SBD,F
Girls,100.02+,7,Brianna Mayon,Ponder,104.1,104.33,54.43,95.25,254.01,Single-ply,SBD,F
Girls,100.02+,8,Mattie Damron,Jacksboro,113.4,97.52,43.09,113.4,254.01,Single-ply,SBD,F
Girls,100.02+,9,Hailey Roberts,Alvord,103.42,79.38,54.43,99.79,233.6,Single-ply,SBD,F
Girls,100.02+,10,Rachel Hardin,Chico,115.21,83.91,38.56,106.59,229.06,Single-ply,SBD,F
Girls,100.02+,11,Annie Slavings,Graham,101.15,61.23,34.02,74.84,170.1,Single-ply,SBD,F
Girls,100.02+,DQ,Gennie Hamilton,Graham,153.31,102.06,,,,Single-ply,SBD,F
Girls,,NS,Sydney Smith,Graham,,,,,,Single-ply,SBD,F
Girls,,NS,Britany Pritchard,Paradise,,,,,,Single-ply,SBD,F
Girls,,NS,Faith Blankenship,Paradise,,,,,,Single-ply,SBD,F
Girls,,NS,Kyndall McCastland,Paradise,,,,,,Single-ply,SBD,F
Girls,,NS,Brooke Haibach,Ponder,,,,,,Single-ply,SBD,F
Girls,,NS,Nazaketh Montes,Springtown,,,,,,Single-ply,SBD,F
Girls,,NS,Faith Reaves,Petrolia,,,,,,Single-ply,SBD,F
Girls,,NS,Hanna Heuring,Petrolia,,,,,,Single-ply,SBD,F
Girls,,NS,Lexi Allen,Springtown,,,,,,Single-ply,SBD,F
Girls,,NS,Jacqueline Perez,Castleberry,,,,,,Single-ply,SBD,F
Girls,,NS,Estephan Garcia,Chico,,,,,,Single-ply,SBD,F
Girls,,NS,Maci Mitchell,Decatur,,,,,,Single-ply,SBD,F
Girls,,NS,Cassie Shaw,Bowie,,,,,,Single-ply,SBD,F
Girls,,NS,Selina Alvarado,Bowie,,,,,,Single-ply,SBD,F
Girls,,NS,Jessica Vargas,Bridgeport,,,,,,Single-ply,SBD,F
Girls,,NS,Andylyn Heckart,Bridgeport,,,,,,Single-ply,SBD,F
Girls,,NS,Brandi Anderson,Bridgeport,,,,,,Single-ply,SBD,F
Girls,,NS,Caitlin Butler,Bowie,,,,,,Single-ply,SBD,F
Girls,,NS,Kaitlyn Martin,Castleberry,,,,,,Single-ply,SBD,F
Girls,,NS,Judith Torres,Castleberry,,,,,,Single-ply,SBD,F
