Place,Name,BirthYear,Country,BodyweightKg,Best3SquatKg,Best3BenchKg,Best3DeadliftKg,TotalKg,WeightClassKg,Sex,CyrillicName,Event,Division,Equipment
1,Svetlana Kotikova,1971,Russia,51.85,95,70,120,285,52,F,Светлана Котикова,SBD,Open,Single-ply
1,Marina Zotova,1983,Russia,54.3,160,110,175,445,56,F,Марина Зотова,SBD,Open,Single-ply
2,Anna Andrievskaya,1992,Russia,55.8,122.5,52.5,115,290,56,F,Анна Андриевская,SBD,Open,Single-ply
1,Elizaveta Barkova,1980,Russia,57.25,140,100,140,380,60,F,Елизавета Баркова,SBD,Open,Single-ply
1,Natalya Samarina,1984,Russia,67.5,210,165,165,540,67.5,F,Наталья Самарина,SBD,Open,Single-ply
DQ,Valentina Kharina,1977,Russia,66.9,217.5,,180,,67.5,F,Валентина Харина,SBD,Open,Single-ply
1,Svetlana Tsvetkova,1980,Russia,70.3,220,125,230,575,75,F,Светлана Цветкова,SBD,Open,Single-ply
1,Mariya Panferova,1977,Russia,77.4,220,110,200,530,82.5,F,Мария Панферова,SBD,Open,Single-ply
1,Aleksandr Baranov,1988,Russia,65.05,225,120,190,535,67.5,M,Александр Баранов,SBD,Open,Single-ply
2,Andrey Paskhin,1970,Russia,64.4,145,115,185,445,67.5,M,Андрей Пасхин,SBD,Open,Single-ply
1,Artem Varlamov,1989,Russia,74.45,300,162.5,305,767.5,75,M,Артем Варламов,SBD,Open,Single-ply
2,Oleg Ryabinnikov,1978,Russia,75,280,182.5,280,742.5,75,M,Олег Рябинников,SBD,Open,Single-ply
3,Nikolay Kulikov,1991,Russia,73.8,255,157.5,235,647.5,75,M,Николай Куликов,SBD,Open,Single-ply
4,Denis Bashkatov,1982,Russia,74.5,222.5,162.5,210,595,75,M,Денис Башкатов,SBD,Open,Single-ply
5,Svyatoslav Smirnov,1989,Russia,71.8,220,135,220,575,75,M,Святослав Смирнов,SBD,Open,Single-ply
DQ,Dmitriy Alekseev,1983,Russia,71.35,290,160,,,75,M,Дмитрий Алексеев,SBD,Open,Single-ply
1,Igor Sobolev,1971,Russia,82.2,292.5,195,260,747.5,82.5,M,Игорь Соболев,SBD,Open,Single-ply
2,Roman Durnov,1986,Russia,80.7,245,150,212.5,607.5,82.5,M,Роман Дурнов,SBD,Open,Single-ply
3,Anton Litvinov,1987,Russia,77.25,230,150,200,580,82.5,M,Антон Литвинов,SBD,Open,Single-ply
DQ,Igor Baranovskiy,1981,Russia,80.85,260,,,,82.5,M,Игорь Барановский,SBD,Open,Single-ply
DQ,Aleksey Nikulin,1982,Russia,80.9,,,,,82.5,M,Алексей Никулин,SBD,Open,Single-ply
DQ,Aleksandr Shulga,1985,Russia,82,280,,,,82.5,M,Александр Шульга,SBD,Open,Single-ply
1,Aleksandr Novozhilov,1972,Russia,89.2,305,200,270,775,90,M,Александр Новожилов,SBD,Open,Single-ply
2,Aleksey Mashkov,1982,Russia,89.45,295,192.5,270,757.5,90,M,Алексей Машков,SBD,Open,Single-ply
3,Ilya Ushkov,1976,Russia,90,290,192.5,265,747.5,90,M,Илья Ушков,SBD,Open,Single-ply
4,Ivan Olyashev,1982,Russia,87.85,280,170,265,715,90,M,Иван Оляшев,SBD,Open,Single-ply
5,Pavel Papenkov,1980,Russia,89.4,260,180,262.5,702.5,90,M,Павел Папенков,SBD,Open,Single-ply
6,Sergey Surovtsev,1989,Russia,88.4,260,140,265,665,90,M,Сергей Суровцев,SBD,Open,Single-ply
7,Evgeniy Mamtsev,1987,Russia,89.05,270,155,240,665,90,M,Евгений Мамцев,SBD,Open,Single-ply
DQ,Oleg Markov,1970,Russia,85.15,245,,225,,90,M,Олег Марков,SBD,Open,Single-ply
DQ,Nikolay Malov,1985,Russia,85.75,225,,,,90,M,Николай Малов,SBD,Open,Single-ply
DQ,Mikhail Rakov,1980,Russia,88.3,,,,,90,M,Михаил Раков,SBD,Open,Single-ply
1,Petr Ershov,1983,Russia,99.6,320,217.5,312.5,850,100,M,Петр Ершов,SBD,Open,Single-ply
2,Vladimir Grevtsov,1985,Russia,99.9,352.5,217.5,280,850,100,M,Владимир Гревцов,SBD,Open,Single-ply
3,Evgeniy Nikulin,1990,Russia,99.05,290,200,295,785,100,M,Евгений Никулин,SBD,Open,Single-ply
4,Dmitriy Andrianov,1988,Russia,96.3,300,205,260,765,100,M,Дмитрий Андрианов,SBD,Open,Single-ply
5,Andrey Vasilyev,1970,Russia,95.2,270,210,280,760,100,M,Андрей Васильев,SBD,Open,Single-ply
6,Aleksey Egorov,1989,Russia,98.45,260,150,237.5,647.5,100,M,Алексей Егоров,SBD,Open,Single-ply
7,Dmitriy Suleymanov,1982,Russia,93.2,225,170,240,635,100,M,Дмитрий Сулейманов,SBD,Open,Single-ply
8,Vladimir Syomochkin,1986,Russia,97.05,240,150,240,630,100,M,Владимир Сёмочкин,SBD,Open,Single-ply
DQ,Aleksey Kireev,1980,Russia,94,,,,,100,M,Алексей Киреев,SBD,Open,Single-ply
DQ,Aleksey Ananin,1986,Russia,97.2,275,,,,100,M,Алексей Ананьин,SBD,Open,Single-ply
DQ,Mikhail Kim,1980,Russia,99.75,340,,355,,100,M,Михаил Ким,SBD,Open,Single-ply
1,Aleksandr Lipatov,1976,Russia,108.8,370,280,350,1000,110,M,Александр Липатов,SBD,Open,Single-ply
2,Ilya Tsvetkov,1975,Russia,109.8,355,215,337.5,907.5,110,M,Илья Цветков,SBD,Open,Single-ply
3,Pavel Karmanov,1978,Russia,108.7,325,262.5,290,877.5,110,M,Павел Карманов,SBD,Open,Single-ply
4,Dmitriy Yashurin,1980,Russia,108.9,320,207.5,315,842.5,110,M,Дмитрий Яшурин,SBD,Open,Single-ply
5,Roman Shevtsov,1982,Russia,106.5,320,240,260,820,110,M,Роман Шевцов,SBD,Open,Single-ply
6,Aleksey Samoylov,1974,Russia,108.05,250,165,240,655,110,M,Алексей Самойлов,SBD,Open,Single-ply
DQ,Sergey Kosarev,1980,Russia,105.4,330,,,,110,M,Сергей Косарев,SBD,Open,Single-ply
DQ,Vasiliy Razmadze,1978,Russia,108.45,315,230,,,110,M,Василий Размадзе,SBD,Open,Single-ply
1,Mikhail Romanov,1977,Russia,113.7,382.5,240,295,917.5,125,M,Михаил Романов,SBD,Open,Single-ply
2,Sergey Shishkin,1972,Russia,122.05,310,225,335,870,125,M,Сергей Шишкин,SBD,Open,Single-ply
3,Konstantin Vymorkov,1977,Russia,121.75,290,245,275,810,125,M,Константин Выморков,SBD,Open,Single-ply
4,Nikolay Markin,1981,Russia,119.05,280,197.5,280,757.5,125,M,Николай Маркин,SBD,Open,Single-ply
5,Evgeniy Anikanov,1988,Russia,117.5,260,200,260,720,125,M,Евгений Аниканов,SBD,Open,Single-ply
1,Karen Danilyan,1976,Russia,162.85,355,285,320,960,125+,M,Карен Данилян,SBD,Open,Single-ply
2,Andrey Ushakov,1980,Russia,134.3,300,250,310,860,125+,M,Андрей Ушаков,SBD,Open,Single-ply
3,Ruslan Pikuza,1979,Russia,139.55,315,220,280,815,125+,M,Руслан Пикуза,SBD,Open,Single-ply
1,Maksim Korotkov #1,1973,Russia,130.85,,272.5,,272.5,125+,M,Максим Коротков,B,Open,Single-ply
