Division,WeightClassKg,Place,Name,Team,BodyweightKg,Best3SquatKg,Best3BenchKg,Best3DeadliftKg,TotalKg,Equipment,Event,Sex,BirthDate
Boys,51.71,1,Ryan Fleming,Dallas Jesuit,47.67,99.79,49.9,106.59,256.28,Single-ply,SBD,M,
Boys,51.71,2,Elijah Simental,Hurst Bell,50.48,113.4,,142.88,256.28,Single-ply,SD,M,
Boys,55.79,1,Braiden Buckley,Hurst Bell,55.07,124.74,61.23,133.81,319.78,Single-ply,SBD,M,
Boys,55.79,2,Ajay Bhavan,Dallas Jesuit,52.34,122.47,61.23,133.81,317.51,Single-ply,SBD,M,
Boys,59.87,1,Leonardo Lopez,Hillsboro,58.88,158.76,72.57,158.76,390.09,Single-ply,SBD,M,
Boys,59.87,2,Noah Jones #3,Hillsboro,56.47,147.42,83.91,149.69,381.02,Single-ply,SBD,M,
Boys,59.87,3,Dan O'Brien #4,Dallas Jesuit,58.51,124.74,72.57,138.35,335.66,Single-ply,SBD,M,
Boys,59.87,4,Cande Navarez,Dallas Jesuit,59.15,106.59,63.5,120.2,290.3,Single-ply,SBD,M,
Boys,59.87,5,Becket Polma,Dallas Jesuit,59.24,95.25,47.63,106.59,249.48,Single-ply,SBD,M,
Boys,59.87,6,Sam Butts,Oakridge School,56.65,72.57,40.82,90.72,204.12,Single-ply,SBD,M,
Boys,59.87,7,Carlos Ortiz #5,Hurst Bell,58.79,,,158.76,158.76,Single-ply,D,M,
Boys,67.13,1,Will Nickols,Dallas Jesuit,66.09,183.7,117.93,197.31,498.95,Single-ply,SBD,M,
Boys,67.13,2,Cole Lenzen,Dallas Jesuit,65.09,142.88,74.84,179.17,396.89,Single-ply,SBD,M,
Boys,67.13,3,Romy Galdamez,Hurst Bell,66.5,151.95,83.91,158.76,394.63,Single-ply,SBD,M,
Boys,67.13,4,Saul Cano,Dallas Jesuit,63.28,140.61,74.84,147.42,362.87,Single-ply,SBD,M,
Boys,67.13,5,Matt Sanchez,Hurst Bell,66.36,131.54,77.11,147.42,356.07,Single-ply,SBD,M,
Boys,67.13,7,Colin Kittleson,Dallas Jesuit,60.55,120.2,68.04,117.93,306.17,Single-ply,SBD,M,
Boys,67.13,8,Josh Wilson,Oakridge School,66.18,108.86,61.23,124.74,294.84,Single-ply,SBD,M,
Boys,67.13,9,Alex Luong,Oakridge School,60.69,106.59,65.77,120.2,292.57,Single-ply,SBD,M,
Boys,67.13,10,Jay Andersen,Oakridge School,62.91,90.72,61.23,127.01,278.96,Single-ply,SBD,M,
Boys,67.13,11,Nick Campbell,Oakridge School,66.22,83.91,61.23,120.2,265.35,Single-ply,SBD,M,
Boys,67.13,DQ,Chance Cruz,Argyle,66.41,,,,,Single-ply,SBD,M,
Boys,74.84,1,Eliya Khajeie,Oakridge School,74.48,192.78,90.72,183.7,467.2,Single-ply,SBD,M,
Boys,74.84,2,Ricardo Martinez #2,Hillsboro,70.67,161.03,102.06,188.24,451.32,Single-ply,SBD,M,
Boys,74.84,3,Caden DeVries,Hillsboro,74.48,156.49,113.4,176.9,446.79,Single-ply,SBD,M,
Boys,74.84,4,Henry Robinson,Argyle,72.35,154.22,83.91,174.63,412.77,Single-ply,SBD,M,
Boys,74.84,5,Weston Smith,Dallas Jesuit,68.45,151.95,74.84,147.42,374.21,Single-ply,SBD,M,
Boys,74.84,7,Jude Nicolaisis,Plano John Paul II,70.72,115.67,68.04,136.08,319.78,Single-ply,SBD,M,
Boys,74.84,8,Luke Wilson #4,Oakridge School,70.99,115.67,65.77,124.74,306.17,Single-ply,SBD,M,
Boys,74.84,10,Michael Romo,Oakridge School,73.16,86.18,47.63,120.2,254.01,Single-ply,SBD,M,
Boys,74.84,11,Max Davis,Dallas Jesuit,67.49,77.11,47.63,90.72,215.46,Single-ply,SBD,M,
Boys,82.1,1,Kevin Young,Cedar Hill,76.93,229.06,124.74,229.06,582.87,Single-ply,SBD,M,
Boys,82.1,2,John Boston,Hillsboro,78.29,197.31,127.01,206.38,530.7,Single-ply,SBD,M,
Boys,82.1,3,Kamaje Nelson,Cedar Hill,81.51,206.38,108.86,192.78,508.02,Single-ply,SBD,M,
Boys,82.1,4,Demari Ward,Cedar Hill,79.65,183.7,108.86,208.65,501.22,Single-ply,SBD,M,
Boys,82.1,5,Qunicy Davis,Cedar Hill,79.79,188.24,108.86,199.58,496.68,Single-ply,SBD,M,
Boys,82.1,6,Mark Castle,Argyle,79.56,188.24,90.72,213.19,492.15,Single-ply,SBD,M,
Boys,82.1,7,Jorge Soria,Hillsboro,81.69,167.83,113.4,172.37,453.59,Single-ply,SBD,M,
Boys,82.1,8,Luke Sullivan,Dallas Jesuit,76.61,165.56,92.99,183.7,442.25,Single-ply,SBD,M,
Boys,82.1,11,Alec Esquivel,Hurst Bell,81.47,156.49,95.25,167.83,419.57,Single-ply,SBD,M,
Boys,82.1,12,Julian Austin,Cedar Hill,77.29,136.08,90.72,172.37,399.16,Single-ply,SBD,M,
Boys,82.1,13,Mason Golden,Oakridge School,78.06,124.74,77.11,181.44,383.29,Single-ply,SBD,M,
Boys,82.1,14,Jack May,Oakridge School,77.52,136.08,77.11,163.29,376.48,Single-ply,SBD,M,
Boys,82.1,15,Joey Johnson,Cedar Hill,77.88,170.1,,206.38,376.48,Single-ply,SD,M,
Boys,82.1,16,Ben Boland,Plano John Paul II,79.65,111.13,88.45,165.56,365.14,Single-ply,SBD,M,
Boys,82.1,17,Lucas Short,Oakridge School,76.16,113.4,79.38,163.29,356.07,Single-ply,SBD,M,
Boys,82.1,18,Aiden Johnson,Oakridge School,76.93,124.74,74.84,136.08,335.66,Single-ply,SBD,M,
Boys,82.1,19,Alex Lopez #4,Oakridge School,80.42,108.86,52.16,142.88,303.91,Single-ply,SBD,M,
Boys,89.81,1,Kobe Floyd,Cedar Hill,86.05,188.24,113.4,204.12,505.76,Single-ply,SBD,M,
Boys,89.81,2,David Ritter #1,Dallas Jesuit,86.45,170.1,99.79,215.46,485.34,Single-ply,SBD,M,
Boys,89.81,4,Gabriel DeConto,Dallas Jesuit,85.87,185.97,77.11,183.7,446.79,Single-ply,SBD,M,
Boys,89.81,5,Fortino Flores,Hurst Bell,87.45,170.1,115.67,161.03,446.79,Single-ply,SBD,M,
Boys,89.81,6,David Tran,Oakridge School,87.27,124.74,65.77,165.56,356.07,Single-ply,SBD,M,
Boys,89.81,8,Kennedy Mdavell,Plano John Paul II,82.19,117.93,65.77,142.88,326.59,Single-ply,SBD,M,
Boys,99.79,1,Michael Flores #7,Hillsboro,91.49,244.94,151.95,188.24,585.13,Single-ply,SBD,M,
Boys,99.79,2,Tarren Black,Cedar Hill,99.65,233.6,122.47,226.8,582.87,Single-ply,SBD,M,
Boys,99.79,3,Stefan Ingram,Cedar Hill,92.49,219.99,120.2,226.8,566.99,Single-ply,SBD,M,
Boys,99.79,4,Kyvion Presley,Cedar Hill,97.98,208.65,117.93,197.31,523.9,Single-ply,SBD,M,
Boys,99.79,5,Jackson Daniel,Dallas Jesuit,94.12,208.65,97.52,206.38,512.56,Single-ply,SBD,M,
Boys,99.79,6,Adam Brandt,Oakridge School,99.34,156.49,83.91,165.56,405.97,Single-ply,SBD,M,
Boys,99.79,7,Gavin Romo,Oakridge School,96.75,142.88,61.23,149.69,353.8,Single-ply,SBD,M,
Boys,99.79,8,Josh Levitz,Oakridge School,94.66,102.06,72.57,156.49,331.12,Single-ply,SBD,M,
Boys,109.77,1,Jailyn Wilson,Cedar Hill,106.05,233.6,106.59,249.48,589.67,Single-ply,SBD,M,
Boys,109.77,2,Muhammed Al-Sayeed,Hurst Bell,107.32,188.24,115.67,213.19,517.1,Single-ply,SBD,M,
Boys,109.77,3,Max Mazar,Plano John Paul II,102.42,219.99,111.13,183.7,514.83,Single-ply,SBD,M,
Boys,109.77,4,Austin Criswell,Argyle,109.5,204.12,104.33,206.38,514.83,Single-ply,SBD,M,
Boys,109.77,5,Damien Sifuentes,Hurst Bell,108.36,192.78,113.4,183.7,489.88,Single-ply,SBD,M,
Boys,109.77,6,Josh Hsu,Oakridge School,108.09,142.88,61.23,165.56,369.68,Single-ply,SBD,M,
Boys,124.74,1,Brandon Tran,Hurst Bell,121.56,272.16,142.88,256.28,671.32,Single-ply,SBD,M,
Boys,124.74,2,Jahaziel Compean,Hillsboro,116.98,222.26,147.42,217.72,587.4,Single-ply,SBD,M,
Boys,124.74,3,Ismael Lopez,Hillsboro,112.67,235.87,158.76,163.29,557.92,Single-ply,SBD,M,
Boys,124.74,4,Austin Rusk,Argyle,119.75,204.12,111.13,195.04,510.29,Single-ply,SBD,M,
Boys,124.74,5,Caden Kitter,Plano John Paul II,119.61,183.7,124.74,188.24,496.68,Single-ply,SBD,M,
Boys,124.74,6,Sky Moon,Plano John Paul II,111.86,174.63,97.52,167.83,439.98,Single-ply,SBD,M,
Boys,124.74,7,Blake Johnson,Plano John Paul II,123.42,151.95,92.99,170.1,415.04,Single-ply,SBD,M,
Boys,124.74+,1,Seth Bynum-Graham,Hillsboro,161.84,265.35,161.03,210.92,637.3,Single-ply,SBD,M,
Boys,124.74+,2,Sam Tombloju,Hurst Bell,131.41,201.85,104.33,181.44,487.61,Single-ply,SBD,M,
Boys,124.74+,3,Josh Hicks,Argyle,139.21,224.53,133.81,,358.34,Single-ply,SB,M,
Boys,124.74+,4,Trent Tidwell,Hillsboro,131.59,,145.15,192.78,337.93,Single-ply,BD,M,
Boys,124.74+,DQ,Evan Mashrouteh,Argyle,126.19,,,,,Single-ply,SBD,M,
