Division,WeightClassKg,Place,Name,Team,BodyweightKg,Best3SquatKg,Best3BenchKg,Best3DeadliftKg,TotalKg,Equipment,Event,Sex,BirthDate
Boys,59.87,1,Trevor Owens,Crane,59.87,142.88,83.91,161.03,387.82,Single-ply,SBD,M,
Boys,59.87,DQ,Josiah Romero,McCamey,58.06,,,,,Single-ply,SBD,M,
Boys,67.13,1,Pacen Smith,Crane,66.9,136.08,83.91,136.08,356.07,Single-ply,SBD,M,
Boys,74.84,DQ,Jj Dominguez,Crane,74.84,,,,,Single-ply,SBD,M,
Boys,74.84,DQ,Fabian Oyoque,Crane,72.94,,,,,Single-ply,SBD,M,
Boys,74.84,DQ,Xavier Vasquez,McCamey,70.53,,,,,Single-ply,SBD,M,
Boys,82.1,1,Ethan Moore,Crane,78.24,183.7,92.99,176.9,453.59,Single-ply,SBD,M,
Boys,82.1,DQ,Jeren McDonald,Crane,81.87,,,,,Single-ply,SBD,M,
Boys,89.81,1,Devon Butler,Crane,89.49,231.33,138.35,199.58,569.26,Single-ply,SBD,M,
Boys,89.81,2,Miguel Sanchez,McCamey,89.81,145.15,92.99,156.49,394.63,Single-ply,SBD,M,
Boys,89.81,DQ,Caden Johnson,McCamey,89.36,,,,,Single-ply,SBD,M,
Boys,89.81,DQ,DeMarco Allen,McCamey,86.18,,,,,Single-ply,SBD,M,
Boys,99.79,1,Juan Pulido,Crane,92.17,197.31,124.74,210.92,532.97,Single-ply,SBD,M,
Boys,99.79,2,Eli Velarde,Crane,97.34,201.85,120.2,165.56,487.61,Single-ply,SBD,M,
Boys,99.79,3,Rigo Molina,McCamey,99.79,181.44,86.18,142.88,410.5,Single-ply,SBD,M,
Boys,99.79,4,Vidal Diaz,McCamey,96.34,158.76,81.65,151.95,392.36,Single-ply,SBD,M,
Boys,109.77,1,Jonathan Santiago,McCamey,108.18,65.77,56.7,83.91,206.38,Single-ply,SBD,M,
Boys,124.74,1,Antonio Garza,Crane,112.81,185.97,122.47,154.22,462.66,Single-ply,SBD,M,
