Name,WeightClassKg,Division,Sex,Best3SquatKg,Best3BenchKg,Best3DeadliftKg,TotalKg,Event,Equipment,Place
Alice Millirons,44,Open,F,82.5,47.5,100,230,SBD,Single-ply,1
M. Garnett,52,Open,F,67.5,35,105,207.5,SBD,Single-ply,2
D. Jones #3,52,Open,F,100,50,115,265,SBD,Single-ply,1
Charles Lockard,52,Open,M,122.5,67.5,152.5,342.5,SBD,Single-ply,1
Ron Sappenfield,56,Open,M,140,102.5,165,407.5,SBD,Single-ply,1
Scott Werner,56,Open,M,135,92.5,152.5,380,SBD,Single-ply,2
Walter Walkup,56,Open,M,137.5,67.5,157.5,362.5,SBD,Single-ply,3
Iain Burgess,60,Open,M,200,122.5,222.5,545,SBD,Single-ply,1
M. Solano,60,Open,M,165,102.5,177.5,445,SBD,Single-ply,2
Larry Przybylski,67.5,Open,M,200,115,210,525,SBD,Single-ply,1
Francis Warner,67.5,Open,M,152.5,105,197.5,455,SBD,Single-ply,2
J. Henderson,67.5,Open,M,145,100,197.5,442.5,SBD,Single-ply,3
R. Arcell,67.5,Open,M,142.5,97.5,165,405,SBD,Single-ply,4
K. Ahern,67.5,Open,M,192.5,,,,SBD,Single-ply,DQ
Jeff Balzer,75,Open,M,240,142.5,255,637.5,SBD,Single-ply,1
Derek Beatty,75,Open,M,230,145,245,620,SBD,Single-ply,2
K. Spicer,75,Open,M,230,147.5,230,607.5,SBD,Single-ply,3
Ken Miller,75,Open,M,200,142.5,202.5,545,SBD,Single-ply,4
Larry Eggleston,75,Open,M,190,107.5,185,482.5,SBD,Single-ply,5
T. Cochran,75,Open,M,167.5,105,197.5,470,SBD,Single-ply,6
Scott Shiplett,82.5,Open,M,255,162.5,265,682.5,SBD,Single-ply,1
Jim Koren,82.5,Open,M,227.5,130,232.5,590,SBD,Single-ply,2
Pete DiSante,82.5,Open,M,192.5,125,232.5,550,SBD,Single-ply,3
B. Curry,82.5,Open,M,175,112.5,230,517.5,SBD,Single-ply,4
Dave Bost,90,Open,M,282.5,190,267.5,740,SBD,Single-ply,1
Ted Kurlowicz,90,Open,M,267.5,195,267.5,730,SBD,Single-ply,2
Gary Dingle,90,Open,M,267.5,162.5,280,710,SBD,Single-ply,3
A. Lentz,90,Open,M,262.5,145,262.5,670,SBD,Single-ply,4
Eliot Doppelt,90,Open,M,230,137.5,242.5,610,SBD,Single-ply,5
Al Barbee,90,Open,M,215,140,227.5,582.5,SBD,Single-ply,6
D. Linski,90,Open,M,210,145,227.5,582.5,SBD,Single-ply,7
John Mogavero,90,Open,M,200,155,215,570,SBD,Single-ply,8
Doug Borden,100,Open,M,350,182.5,317.5,850,SBD,Single-ply,1
Pete Buzy,100,Open,M,315,192.5,242.5,750,SBD,Single-ply,2
Robert Stewart,100,Open,M,265,177.5,275,717.5,SBD,Single-ply,3
Robert Rood Sr,100,Open,M,245,192.5,260,697.5,SBD,Single-ply,4
W. Gootee,100,Open,M,210,152.5,192.5,555,SBD,Single-ply,5
J. Robinson,110,Open,M,297.5,177.5,307.5,782.5,SBD,Single-ply,1
T. Kinard,110,Open,M,280,180,265,725,SBD,Single-ply,2
John Florio #1,110,Open,M,282.5,170,250,702.5,SBD,Single-ply,3
R. Addy,110,Open,M,272.5,162.5,267.5,702.5,SBD,Single-ply,4
Bill Kaminsky,110,Open,M,217.5,192.5,257.5,667.5,SBD,Single-ply,5
John Ford #1,125,Open,M,357.5,195,330,882.5,SBD,Single-ply,1
Kevin Farber,125,Open,M,305,210,305,820,SBD,Single-ply,2
Willie Morris,125,Open,M,282.5,205,285,772.5,SBD,Single-ply,3
Tom Giordani,125,Open,M,277.5,172.5,272.5,722.5,SBD,Single-ply,4
E. George,125,Open,M,265,142.5,265,672.5,SBD,Single-ply,5
A. Jackson,125,Open,M,242.5,170,245,657.5,SBD,Single-ply,6
Mike Bernardon,125,Open,M,235,150,250,635,SBD,Single-ply,7
George Hechter,125+,Open,M,352.5,232.5,317.5,902.5,SBD,Single-ply,1
John Sheets,125+,Open,M,282.5,172.5,317.5,772.5,SBD,Single-ply,2
John Steward,125+,Open,M,250,170,250,670,SBD,Single-ply,3
Charles Lockard,52,Masters,M,122.5,67.5,152.5,342.5,SBD,Single-ply,1
Ron Sappenfield,56,Masters,M,140,102.5,165,407.5,SBD,Single-ply,1
Robert Rood Sr,100,Masters,M,245,192.5,260,697.5,SBD,Single-ply,1
John Florio #1,110,Masters,M,282.5,170,250,702.5,SBD,Single-ply,1
Scott Werner,56,Novice,M,135,92.5,152.5,380,SBD,Single-ply,1
Francis Warner,67.5,Novice,M,152.5,105,197.5,455,SBD,Single-ply,1
J. Henderson,67.5,Novice,M,145,100,197.5,442.5,SBD,Single-ply,2
R. Arcell,67.5,Novice,M,142.5,97.5,165,405,SBD,Single-ply,3
M. Damel,67.5,Novice,M,132.5,112.5,147.5,392.5,SBD,Single-ply,4
K. Spice,75,Novice,M,230,147.5,230,607.5,SBD,Single-ply,1
Tagg Shiley,75,Novice,M,192.5,140,167.5,500,SBD,Single-ply,2
M. Markowski,75,Novice,M,170,102.5,205,477.5,SBD,Single-ply,3
T. Cochran,75,Novice,M,167.5,105,197.5,470,SBD,Single-ply,4
L. McKenzie,82.5,Novice,M,190,155,215,560,SBD,Single-ply,1
E. Rickfits,82.5,Novice,M,182.5,127.5,210,520,SBD,Single-ply,3
C. Craig,82.5,Novice,M,190,125,227.5,542.5,SBD,Single-ply,2
R. Curry,82.5,Novice,M,175,112.5,230,517.5,SBD,Single-ply,4
E. Oname,82.5,Novice,M,160,115,207.5,482.5,SBD,Single-ply,5
Eliot Doppelt,90,Novice,M,230,137.5,242.5,610,SBD,Single-ply,1
D. Linski,90,Novice,M,210,145,227.5,582.5,SBD,Single-ply,2
John Mogavero,90,Novice,M,200,155,215,570,SBD,Single-ply,3
Charles Sweeney,90,Novice,M,185,112.5,215,512.5,SBD,Single-ply,4
Mark Rainey,90,Novice,M,155,137.5,202.5,495,SBD,Single-ply,5
R. Shiley,90,Novice,M,175,130,185,490,SBD,Single-ply,6
W. Gootee,100,Novice,M,210,152.5,192.5,555,SBD,Single-ply,1
R. Addy,110,Novice,M,272.5,162.5,267.5,702.5,SBD,Single-ply,1
H. Copper,110,Novice,M,230,167.5,265,662.5,SBD,Single-ply,2
Mike Diggs,110,Novice,M,222.5,110,240,572.5,SBD,Single-ply,3
Kevin Farbor,125,Novice,M,305,210,305,820,SBD,Single-ply,1
G. Elmore,125,Novice,M,265,142.5,265,672.5,SBD,Single-ply,2
Mike Bernardon,125,Novice,M,235,150,250,635,SBD,Single-ply,3
John Sheets,125+,Novice,M,282.5,172.5,317.5,772.5,SBD,Single-ply,1
