Division,WeightClassKg,Place,Name,Team,BodyweightKg,Best3SquatKg,Best3BenchKg,Best3DeadliftKg,TotalKg,Equipment,Event,Sex
Boys,51.71,1,Dominique Dickerson,Copperas Cove,50.89,97.52,63.5,120.2,281.23,Single-ply,SBD,M
Boys,51.71,2,Ryshad Johnson,Temple,50.98,97.52,56.7,113.4,267.62,Single-ply,SBD,M
Boys,51.71,3,Tye Ochoa,Temple,50.98,97.52,52.16,108.86,258.55,Single-ply,SBD,M
Boys,51.71,4,Seth Solis,Troy,43.82,97.52,56.7,102.06,256.28,Single-ply,SBD,M
Boys,51.71,5,Ryan Dean,Waco Midway,51.71,88.45,58.97,102.06,249.48,Single-ply,SBD,M
Boys,55.79,6,Joshua Boersma,Belton,51.8,70.31,45.36,90.72,206.38,Single-ply,SBD,M
Boys,51.71,7,Robert Lopez,Belton,46.54,63.5,40.82,83.91,188.24,Single-ply,SBD,M
Boys,51.71,8,Francisco Espinosa,Copperas Cove,50.53,49.9,38.56,70.31,158.76,Single-ply,SBD,M
Boys,55.79,DQ,Isaiah Robinson,Waco Midway,54.25,,,,,Single-ply,SBD,M
Boys,55.79,2,Jake Schmidt,Troy,53.34,95.25,74.84,97.52,267.62,Single-ply,SBD,M
Boys,59.87,1,Forrest Warren,Georgetown,59.78,190.51,86.18,165.56,442.25,Single-ply,SBD,M
Boys,67.13,2,Tyson Eno,Belton,60.1,122.47,92.99,147.42,362.87,Single-ply,SBD,M
Boys,59.87,3,Dedriell Bell,Temple,59.51,129.27,74.84,147.42,351.53,Single-ply,SBD,M
Boys,59.87,4,Pete Contreras,Belton,56.79,142.88,81.65,124.74,349.27,Single-ply,SBD,M
Boys,59.87,5,Ricky Guerra,Waco Midway,57.42,129.27,68.04,131.54,328.85,Single-ply,SBD,M
Boys,59.87,6,Marquis Collins,Temple,58.15,117.93,68.04,136.08,322.05,Single-ply,SBD,M
Boys,59.87,7,Kamon Long,Waco University,59.51,106.59,70.31,129.27,306.17,Single-ply,SBD,M
Boys,59.87,8,Justin Joe,Copperas Cove,56.97,108.86,63.5,122.47,294.84,Single-ply,SBD,M
Boys,59.87,9,Dylan Bradford,Troy,56.7,99.79,72.57,115.67,288.03,Single-ply,SBD,M
Boys,59.87,10,John Holmes,Belton,59.15,108.86,56.7,120.2,285.76,Single-ply,SBD,M
Boys,59.87,11,Derris Prater,Belton,56.97,104.33,61.23,108.86,274.42,Single-ply,SBD,M
Boys,59.87,DQ,Brodie Sachs,Georgetown,58.69,117.93,,,,Single-ply,SBD,M
Boys,67.13,1,Antwan Coleman,Waco University,66.5,213.19,115.67,185.97,514.83,Single-ply,SBD,M
Boys,67.13,2,Ryan Arnold,Georgetown,66.77,192.78,99.79,179.17,471.74,Single-ply,SBD,M
Boys,74.84,3,Robert Martinez,Belton,67.36,156.49,88.45,219.99,464.93,Single-ply,SBD,M
Boys,67.13,4,Xavier Moffit,Belton,65.59,167.83,83.91,181.44,433.18,Single-ply,SBD,M
Boys,74.84,5,Jeffrey Sanders,Temple,67.36,161.03,97.52,170.1,428.64,Single-ply,SBD,M
Boys,74.84,6,Xavier Robertson,Waco University,67.31,138.35,88.45,170.1,396.89,Single-ply,SBD,M
Boys,67.13,7,Charles Strickland,Copperas Cove,61.6,149.69,81.65,158.76,390.09,Single-ply,SBD,M
Boys,67.13,8,Dedreon Bell,Temple,63.32,142.88,81.65,158.76,383.29,Single-ply,SBD,M
Boys,67.13,9,Travis Stone,Rogers,62.05,124.74,70.31,145.15,340.19,Single-ply,SBD,M
Boys,67.13,10,Issac Collins,Temple,66.13,131.54,68.04,140.61,340.19,Single-ply,SBD,M
Boys,67.13,11,Ty Hill,Georgetown,65.14,113.4,65.77,111.13,290.3,Single-ply,SBD,M
Boys,67.13,12,Edward Jacquez,Waco University,62.69,83.91,65.77,102.06,251.74,Single-ply,SBD,M
Boys,74.84,1,Raul Nava,Georgetown,72.48,197.31,117.93,192.78,508.02,Single-ply,SBD,M
Boys,74.84,2,Case D'Herde,Waco Midway,73.84,170.1,117.93,219.99,508.02,Single-ply,SBD,M
Boys,74.84,3,Josh Zarazua,Waco University,73.48,165.56,115.67,176.9,458.13,Single-ply,SBD,M
Boys,74.84,4,Stephen Snyder,Belton,71.67,147.42,90.72,199.58,437.72,Single-ply,SBD,M
Boys,74.84,5,Dominique Johnson-Nealy,Temple,69.76,161.03,95.25,172.37,428.64,Single-ply,SBD,M
Boys,74.84,6,Brandon Julian,Belton,69.49,163.29,99.79,163.29,426.38,Single-ply,SBD,M
Boys,74.84,7,Jason Hall,Belton,71.58,163.29,83.91,174.63,421.84,Single-ply,SBD,M
Boys,74.84,8,Michael Espinosa,Waco Midway,71.76,151.95,92.99,158.76,403.7,Single-ply,SBD,M
Boys,74.84,9,Travon Houston,Belton,70.03,136.08,104.33,158.76,399.16,Single-ply,SBD,M
Boys,74.84,10,Isaiah Coles,Copperas Cove,73.21,142.88,86.18,158.76,387.82,Single-ply,SBD,M
Boys,74.84,11,Andrew Johnson #7,Georgetown,72.48,136.08,83.91,124.74,344.73,Single-ply,SBD,M
Boys,82.1,1,Jeff Stark,Troy,79.2,199.58,136.08,183.7,519.36,Single-ply,SBD,M
Boys,82.1,2,Colton Mayo,Troy,78.65,165.56,158.76,183.7,508.02,Single-ply,SBD,M
Boys,82.1,3,Patrick Tobin,Georgetown,78.93,190.51,113.4,204.12,508.02,Single-ply,SBD,M
Boys,82.1,4,Karim Sarhani,Copperas Cove,79.83,190.51,115.67,185.97,492.15,Single-ply,SBD,M
Boys,82.1,5,Gaylon Sanders,Temple,78.2,174.63,113.4,197.31,485.34,Single-ply,SBD,M
Boys,82.1,6,Ashton Jackson,Temple,78.47,183.7,95.25,204.12,483.08,Single-ply,SBD,M
Boys,82.1,7,Ryan Vincent,Belton,78.2,149.69,106.59,181.44,437.72,Single-ply,SBD,M
Boys,82.1,8,Darren Countiss,Temple,80.83,165.56,102.06,170.1,437.72,Single-ply,SBD,M
Boys,82.1,9,Mario Perez,Belton,79.29,158.76,97.52,172.37,428.64,Single-ply,SBD,M
Boys,82.1,10,Michael Hicks,Temple,80.1,161.03,99.79,167.83,428.64,Single-ply,SBD,M
Boys,82.1,11,Jordan Haas,Georgetown,81.01,165.56,102.06,158.76,426.38,Single-ply,SBD,M
Boys,82.1,12,Bryson Jones,Rogers,79.56,154.22,97.52,158.76,410.5,Single-ply,SBD,M
Boys,89.81,13,Alex Anderson #3,Waco Midway,82.33,156.49,97.52,154.22,408.23,Single-ply,SBD,M
Boys,82.1,14,Drew Wiley,Belton,82.1,136.08,90.72,154.22,381.02,Single-ply,SBD,M
Boys,82.1,15,Zach Martin,Belton,81.92,147.42,81.65,136.08,365.14,Single-ply,SBD,M
Boys,82.1,16,Robbie Seybold,Copperas Cove,76.75,142.88,83.91,136.08,362.87,Single-ply,SBD,M
Boys,82.1,17,Austin Abbey,Copperas Cove,78.29,120.2,79.38,142.88,342.46,Single-ply,SBD,M
Boys,82.1,DQ,Hunter McVeigh,Copperas Cove,81.1,127.01,,124.74,,Single-ply,SBD,M
Boys,82.1,DQ,Tyler Griffon,Copperas Cove,76.29,142.88,,142.88,,Single-ply,SBD,M
Boys,89.81,1,Rayshun Jones,Belton,89.63,197.31,106.59,204.12,508.02,Single-ply,SBD,M
Boys,89.81,2,Matt Farmer,Belton,88.99,165.56,133.81,197.31,496.68,Single-ply,SBD,M
Boys,89.81,3,Tyler Moody,Georgetown,87.45,188.24,113.4,192.78,494.42,Single-ply,SBD,M
Boys,89.81,4,Devin Mercer,Waco Midway,86.45,165.56,115.67,192.78,474,Single-ply,SBD,M
Boys,89.81,5,Nika Davis,Waco,82.92,181.44,108.86,181.44,471.74,Single-ply,SBD,M
Boys,89.81,6,Ryan Cox,Belton,88.9,188.24,113.4,158.76,460.4,Single-ply,SBD,M
Boys,89.81,7,Shaq Fluelen,Copperas Cove,86.18,176.9,102.06,167.83,446.79,Single-ply,SBD,M
Boys,89.81,8,Gabe Jackson,Copperas Cove,86.18,170.1,104.33,167.83,442.25,Single-ply,SBD,M
Boys,89.81,9,Kyle Adamson,Belton,86.36,147.42,99.79,185.97,433.18,Single-ply,SBD,M
Boys,89.81,10,Enrique Orellana,Belton,87.09,149.69,122.47,158.76,430.91,Single-ply,SBD,M
Boys,89.81,11,Chase McCosham,Belton,89.36,154.22,102.06,161.03,417.3,Single-ply,SBD,M
Boys,89.81,12,Nic Fortenberry,Troy,87.36,149.69,90.72,158.76,399.16,Single-ply,SBD,M
Boys,89.81,13,Jireh Craig,Belton,83.64,138.35,92.99,158.76,390.09,Single-ply,SBD,M
Boys,89.81,14,Roderick Harris,Waco,87.72,149.69,88.45,151.95,390.09,Single-ply,SBD,M
Boys,89.81,15,Cameron Horton,Georgetown,89.18,124.74,70.31,151.95,347,Single-ply,SBD,M
Boys,89.81,DQ,Elijah Timarky,Belton,88.18,158.76,,158.76,,Single-ply,SBD,M
Boys,99.79,1,Demarkes Mathis,Temple,98.61,219.99,127.01,226.8,573.79,Single-ply,SBD,M
Boys,99.79,2,Josh Owens,Waco,91.9,204.12,120.2,224.53,548.85,Single-ply,SBD,M
Boys,99.79,3,Xavier Bryant,Temple,98.52,197.31,127.01,204.12,528.44,Single-ply,SBD,M
Boys,99.79,4,David Lopez,Temple,94.44,195.04,120.2,195.04,510.29,Single-ply,SBD,M
Boys,99.79,5,Dominick Thompson,Temple,91.72,195.04,106.59,190.51,492.15,Single-ply,SBD,M
Boys,99.79,6,Robin Riley #2,Copperas Cove,92.53,176.9,106.59,204.12,487.61,Single-ply,SBD,M
Boys,99.79,7,Gabe Perez,Copperas Cove,91.63,188.24,92.99,192.78,474,Single-ply,SBD,M
Boys,109.77,8,Joseph Huffman,Rogers,100.02,174.63,108.86,170.1,453.59,Single-ply,SBD,M
Boys,99.79,9,Derrick Moore,Waco,96.16,158.76,92.99,185.97,437.72,Single-ply,SBD,M
Boys,99.79,10,Lazurus Flores,Waco,93.35,142.88,99.79,181.44,424.11,Single-ply,SBD,M
Boys,99.79,11,Matthew Larsen,Belton,95.71,136.08,115.67,170.1,421.84,Single-ply,SBD,M
Boys,99.79,12,Anthony Loya,Copperas Cove,96.43,161.03,99.79,158.76,419.57,Single-ply,SBD,M
Boys,99.79,13,Drew Dewald,Copperas Cove,95.53,149.69,90.72,170.1,410.5,Single-ply,SBD,M
Boys,109.77,DQ,Josh Lyons,Copperas Cove,102.97,,,,,Single-ply,SBD,M
Boys,109.77,2,Brent Marona,Copperas Cove,100.52,242.67,113.4,229.06,585.13,Single-ply,SBD,M
Boys,109.77,3,Lorenzo Martinez,Georgetown,106.87,247.21,133.81,204.12,585.13,Single-ply,SBD,M
Boys,109.77,4,Darius McClinton,Copperas Cove,107.5,201.85,142.88,204.12,548.85,Single-ply,SBD,M
Boys,124.74,5,Andy Mills,Waco Midway,109.95,210.92,127.01,190.51,528.44,Single-ply,SBD,M
Boys,109.77,6,Nick Ladner,Waco Midway,108.14,215.46,136.08,170.1,521.63,Single-ply,SBD,M
Boys,109.77,7,Chance Cottle,Georgetown,106.14,204.12,111.13,199.58,514.83,Single-ply,SBD,M
Boys,109.77,8,Rodarious Birks,Belton,108.14,190.51,108.86,181.44,480.81,Single-ply,SBD,M
Boys,109.77,9,Brandon Sullivan,Belton,103.78,181.44,113.4,181.44,476.27,Single-ply,SBD,M
Boys,109.77,10,Gabriel Vega,Waco University,107.68,190.51,88.45,190.51,469.47,Single-ply,SBD,M
Boys,109.77,11,Caleb Miles,Copperas Cove,103.6,158.76,113.4,181.44,453.59,Single-ply,SBD,M
Boys,109.77,12,Blake Holmes,Belton,108.86,158.76,106.59,154.22,419.57,Single-ply,SBD,M
Boys,109.77,13,Tyler Thompson,Rogers,101.79,161.03,81.65,147.42,390.09,Single-ply,SBD,M
Boys,109.77,14,Aaron Johnson,Georgetown,100.24,158.76,86.18,138.35,383.29,Single-ply,SBD,M
Boys,109.77,15,Josh Jaden,Belton,103.6,129.27,83.91,145.15,358.34,Single-ply,SBD,M
Boys,109.77,DQ,Austin Farr,Belton,102.33,151.95,,181.44,,Single-ply,SBD,M
Boys,124.74,1,Dillon Rogers,Georgetown,110.68,242.67,158.76,201.85,603.28,Single-ply,SBD,M
Boys,124.74,2,Tyler Preston,Georgetown,113.49,229.06,142.88,217.72,589.67,Single-ply,SBD,M
Boys,124.74,3,Donshay Johnson,Temple,115.21,235.87,124.74,204.12,564.72,Single-ply,SBD,M
Boys,124.74,4,Michael Bonilla,Waco University,121.29,222.26,120.2,217.72,560.19,Single-ply,SBD,M
Boys,124.74,5,John Pineda,Troy,110.59,213.19,111.13,206.38,530.7,Single-ply,SBD,M
Boys,124.74,6,Koby Williams,Belton,113.94,204.12,113.4,204.12,521.63,Single-ply,SBD,M
Boys,124.74,7,Mj Morris,Waco Midway,124.56,226.8,113.4,181.44,521.63,Single-ply,SBD,M
Boys,124.74,8,Tanner Morgan,Temple,114.67,192.78,120.2,176.9,489.88,Single-ply,SBD,M
Boys,124.74,9,Devonte Neal,Waco,121.2,151.95,106.59,174.63,433.18,Single-ply,SBD,M
Boys,124.74,10,Sam Hussey,Belton,115.21,172.37,120.2,136.08,428.64,Single-ply,SBD,M
Boys,124.74,11,Jaquill Harden,Waco,121.02,138.35,106.59,176.9,421.84,Single-ply,SBD,M
Boys,124.74+,1,Ben Hughes,Waco University,136.26,290.3,156.49,283.5,730.28,Single-ply,SBD,M
Boys,124.74+,2,Nick Sunday,Waco,173.27,312.98,183.7,226.8,723.48,Single-ply,SBD,M
Boys,124.74+,3,Troy Healy,Temple,127.55,258.55,138.35,231.33,628.23,Single-ply,SBD,M
Boys,124.74+,4,Davontae Moore,Temple,133.27,256.28,142.88,215.46,614.62,Single-ply,SBD,M
Boys,124.74+,5,Freddie Johnson,Temple,136.89,249.48,122.47,240.4,612.35,Single-ply,SBD,M
Boys,124.74+,6,Les Sakaria,Copperas Cove,133.81,260.82,136.08,188.24,585.13,Single-ply,SBD,M
Boys,124.74+,7,Ronnie Jefferson,Temple,125.92,199.58,117.93,197.31,514.83,Single-ply,SBD,M
Boys,124.74+,8,Noah Russell,Waco,154.22,172.37,124.74,174.63,471.74,Single-ply,SBD,M
Boys,124.74+,DQ,Dalton Hayes,Waco Midway,126.1,204.12,97.52,,,Single-ply,SBD,M
Boys,124.74+,DQ,Nick McGee,Copperas Cove,139.71,165.56,,181.44,,Single-ply,SBD,M
