Division,WeightClassKg,Place,Name,Team,BodyweightKg,Best3SquatKg,Best3BenchKg,Best3DeadliftKg,TotalKg,Equipment,Event,Sex
Boys,51.71,1,Chris Vivereo,Bryan,50.8,131.54,65.77,140.61,337.93,Single-ply,SBD,M
Boys,55.79,2,Dominique Mallard,Navasota,51.8,127.01,63.5,145.15,335.66,Single-ply,SBD,M
Boys,51.71,3,Conner Evans,Conroe The Woodlands,51.35,113.4,58.97,140.61,312.98,Single-ply,SBD,M
Boys,51.71,4,Eric Eckert,Magnolia,50.71,104.33,74.84,131.54,310.71,Single-ply,SBD,M
Boys,55.79,5,Kyle Ramsey,Navasota,51.8,124.74,63.5,120.2,308.44,Single-ply,SBD,M
Boys,51.71,6,Jhovanny Gutierrez,Hearne,50.8,106.59,56.7,133.81,297.1,Single-ply,SBD,M
Boys,51.71,7,Cooper Houston,Montgomery,51.17,106.59,65.77,108.86,281.23,Single-ply,SBD,M
Boys,51.71,8,Garrett Kelso,Splendora,50.98,99.79,52.16,113.4,265.35,Single-ply,SBD,M
Boys,51.71,9,Raymond Sifuentes,Hearne,49.53,83.91,61.23,106.59,251.74,Single-ply,SBD,M
Boys,51.71,10,Chris Abbot,Navasota,44.45,90.72,47.63,102.06,240.4,Single-ply,SBD,M
Boys,51.71,11,Dillon Silvis,New Waverly,47.99,90.72,40.82,97.52,229.06,Single-ply,SBD,M
Boys,51.71,12,Juan Rodriguez,Hearne,45.63,77.11,29.48,95.25,201.85,Single-ply,SBD,M
Boys,55.79,DQ,Eric Aceves,Madisonville,51.89,124.74,72.57,,,Single-ply,SBD,M
Boys,59.87,1,Darius Mallard,Navasota,55.88,158.76,92.99,183.7,435.45,Single-ply,SBD,M
Boys,55.79,2,Jamahl Johnson,Houston Cypress Woods,54.52,158.76,86.18,161.03,405.97,Single-ply,SBD,M
Boys,55.79,3,Tyler Sevcik,College Station A&M Cons,55.43,136.08,90.72,154.22,381.02,Single-ply,SBD,M
Boys,55.79,4,Logan Teal,Conroe Woodlands College Park,55.25,113.4,47.63,124.74,285.76,Single-ply,SBD,M
Boys,55.79,DQ,Rey Perez,Madisonville,55.79,,,,,Single-ply,SBD,M
Boys,55.79,DQ,Kyle Stafford,Navasota,55.79,133.81,,,,Single-ply,SBD,M
Boys,59.87,1,Victor Aguilar,Caldwell,57.97,215.46,131.54,174.63,521.63,Single-ply,SBD,M
Boys,59.87,2,Eric Garza,Magnolia West,59.6,176.9,113.4,176.9,467.2,Single-ply,SBD,M
Boys,67.13,3,Caffery Penn,Conroe The Woodlands,59.96,167.83,97.52,192.78,458.13,Single-ply,SBD,M
Boys,59.87,4,Albert Cortez,Bryan,59.24,145.15,77.11,174.63,396.89,Single-ply,SBD,M
Boys,67.13,5,Erick Navaro,Navasota,60.1,138.35,90.72,163.29,392.36,Single-ply,SBD,M
Boys,59.87,6,Sterling Scott,Conroe The Woodlands,58.42,156.49,72.57,161.03,390.09,Single-ply,SBD,M
Boys,59.87,7,Steven Jefferson,Navasota,59.6,131.54,77.11,167.83,376.48,Single-ply,SBD,M
Boys,67.13,8,Cameron Gray,Navasota,60.06,120.2,86.18,170.1,376.48,Single-ply,SBD,M
Boys,59.87,9,John-Bradley Green,Conroe Woodlands College Park,59.69,133.81,68.04,161.03,362.87,Single-ply,SBD,M
Boys,59.87,10,Freddy Hernandez #1,Hearne,59.87,127.01,72.57,158.76,358.34,Single-ply,SBD,M
Boys,59.87,11,Nick Harris,Madisonville,58.42,131.54,79.38,142.88,353.8,Single-ply,SBD,M
Boys,67.13,12,Gabe Santallian,Bryan,60.06,149.69,72.57,131.54,353.8,Single-ply,SBD,M
Boys,59.87,DQ,Ismael Castillo,Madisonville,59.51,147.42,83.91,,,Single-ply,SBD,M
Boys,59.87,DQ,Drew Haas,Hallettsville,56.79,158.76,,,,Single-ply,SBD,M
Boys,67.13,DQ,John Marek,Bellville,60.06,129.27,,,,Single-ply,SBD,M
Boys,67.13,1,Zerrick Merchant,College Station A&M Cons,65.86,204.12,131.54,226.8,562.45,Single-ply,SBD,M
Boys,67.13,2,Brandon Jackson,College Station A&M Cons,66.95,215.46,113.4,195.04,523.9,Single-ply,SBD,M
Boys,67.13,3,Eric Johnson,Houston Cypress Woods,67.13,192.78,117.93,197.31,508.02,Single-ply,SBD,M
Boys,74.84,4,Willie Lavan,Cameron Yoe,67.31,154.22,111.13,238.14,503.49,Single-ply,SBD,M
Boys,67.13,5,Jesus Cortez,Navasota,67.13,172.37,104.33,181.44,458.13,Single-ply,SBD,M
Boys,67.13,6,Tate Hartley,Buffalo,63.32,174.63,95.25,183.7,453.59,Single-ply,SBD,M
Boys,74.84,7,Joaquin Garza,Hallettsville,67.31,185.97,86.18,179.17,451.32,Single-ply,SBD,M
Boys,67.13,8,Franteric Powell,Navasota,64.14,170.1,99.79,172.37,442.25,Single-ply,SBD,M
Boys,67.13,9,Jared Cohan,Bryan Rudder,60.78,149.69,81.65,167.83,399.16,Single-ply,SBD,M
Boys,67.13,10,Frankie DeLeon,Navasota,66.32,145.15,86.18,161.03,392.36,Single-ply,SBD,M
Boys,67.13,11,William Tolliver,Hearne,64.77,127.01,81.65,167.83,376.48,Single-ply,SBD,M
Boys,67.13,12,Esteban Nunez,Caldwell,66.95,147.42,74.84,154.22,376.48,Single-ply,SBD,M
Boys,67.13,13,Dustin Drews,Magnolia West,63.05,149.69,83.91,138.35,371.95,Single-ply,SBD,M
Boys,67.13,14,Jesse Orozco,Hempstead,66.77,111.13,124.74,136.08,371.95,Single-ply,SBD,M
Boys,74.84,15,James Toups,Conroe The Woodlands,67.31,136.08,92.99,136.08,365.14,Single-ply,SBD,M
Boys,67.13,16,Adam May,Conroe The Woodlands,65.32,145.15,77.11,138.35,360.61,Single-ply,SBD,M
Boys,67.13,17,Will Love,Bellville,65.41,129.27,86.18,142.88,358.34,Single-ply,SBD,M
Boys,74.84,18,Chris Kinzie,Conroe The Woodlands,67.31,124.74,88.45,145.15,358.34,Single-ply,SBD,M
Boys,67.13,19,Spencer James,Navasota,65.91,108.86,54.43,124.74,288.03,Single-ply,SBD,M
Boys,67.13,DQ,Trent Holt,Centerville,67.13,122.47,,,,Single-ply,SBD,M
Boys,67.13,DQ,Steven McCartha,Montgomery,65.05,176.9,,,,Single-ply,SBD,M
Boys,74.84,1,Kendrick Armstead,Navasota,74.12,276.69,154.22,226.8,657.71,Single-ply,SBD,M
Boys,74.84,2,Marcus Orzabal,College Station A&M Cons,73.75,210.92,127.01,231.33,569.26,Single-ply,SBD,M
Boys,74.84,3,Darius Battles,Hempstead,73.66,192.78,142.88,215.46,551.11,Single-ply,SBD,M
Boys,74.84,4,Pete Quintero,Bryan,73.3,208.65,133.81,206.38,548.85,Single-ply,SBD,M
Boys,74.84,5,Tom Lawless,Rogers,73.39,204.12,106.59,204.12,514.83,Single-ply,SBD,M
Boys,74.84,6,Caleb Schneebeli,Bryan Rudder,74.3,183.7,117.93,213.19,514.83,Single-ply,SBD,M
Boys,74.84,7,Cody Markham,New Waverly,72.85,195.04,90.72,213.19,498.95,Single-ply,SBD,M
Boys,74.84,8,Tristan Dudley,Rogers,74.12,190.51,117.93,174.63,483.08,Single-ply,SBD,M
Boys,74.84,9,Jesus Lopez,Buffalo,69.58,167.83,95.25,192.78,455.86,Single-ply,SBD,M
Boys,74.84,10,Kyle Castilleja,Hearne,70.03,149.69,95.25,204.12,449.06,Single-ply,SBD,M
Boys,74.84,11,Austin Cude,Navasota,72.12,165.56,104.33,172.37,442.25,Single-ply,SBD,M
Boys,74.84,12,Antuan Wallis,Bryan,70.94,181.44,86.18,161.03,428.64,Single-ply,SBD,M
Boys,74.84,13,Byron Randle,Brookshire Royal,70.03,165.56,92.99,165.56,424.11,Single-ply,SBD,M
Boys,82.1,14,Alija Babar,Madisonville,75.02,158.76,92.99,142.88,394.63,Single-ply,SBD,M
Boys,74.84,15,Will Smith #3,Navasota,74.84,142.88,81.65,163.29,387.82,Single-ply,SBD,M
Boys,74.84,16,Thomas Salinas,Bellville,74.84,136.08,74.84,149.69,360.61,Single-ply,SBD,M
Boys,74.84,DQ,Marcos Yvarra,Brookshire Royal,74.84,156.49,,,,Single-ply,SBD,M
Boys,74.84,DQ,Logan Jones,Caldwell,74.84,158.76,,,,Single-ply,SBD,M
Boys,74.84,DQ,Austin Stephen,College Station A&M Cons,74.84,,,,,Single-ply,SBD,M
Boys,74.84,DQ,John Patty,Montgomery,74.84,213.19,,,,Single-ply,SBD,M
Boys,74.84,DQ,Matt Dloughy,Caldwell,74.12,147.42,77.11,,,Single-ply,SBD,M
Boys,82.1,DQ,Allen Zapata,Brookshire Royal,74.93,174.63,97.52,,,Single-ply,SBD,M
Boys,74.84,DQ,Walter Sierra,Brookshire Royal,72.8,156.49,83.91,,,Single-ply,SBD,M
Boys,89.81,1,Joe Waithaka,College Station A&M Cons,82.19,254.01,151.95,240.4,646.37,Single-ply,SBD,M
Boys,82.1,2,Jose Dominguez,Buffalo,80.29,249.48,149.69,238.14,637.3,Single-ply,SBD,M
Boys,82.1,3,Auston Ellis,Bryan Rudder,82.01,242.67,142.88,219.99,605.55,Single-ply,SBD,M
Boys,82.1,4,Hunter Fritscher,Crawford,76.48,238.14,136.08,215.46,589.67,Single-ply,SBD,M
Boys,82.1,5,Will Glover,Houston Cypress Woods,78.29,226.8,136.08,222.26,585.13,Single-ply,SBD,M
Boys,89.81,6,Desmond Calhoun,Navasota,82.28,181.44,108.86,254.01,544.31,Single-ply,SBD,M
Boys,82.1,7,John Lawless,Rogers,78.83,215.46,113.4,204.12,532.97,Single-ply,SBD,M
Boys,82.1,8,Jacob Cook,Splendora,77.29,204.12,120.2,195.04,519.36,Single-ply,SBD,M
Boys,82.1,9,Alex Hryshchyshyn,Conroe The Woodlands,79.56,183.7,111.13,208.65,503.49,Single-ply,SBD,M
Boys,82.1,10,Jake Bauer,Navasota,77.56,195.04,111.13,188.24,494.42,Single-ply,SBD,M
Boys,82.1,11,Ryan Clever,Madisonville,78.02,174.63,124.74,181.44,480.81,Single-ply,SBD,M
Boys,82.1,12,Trevor Austin,Magnolia West,77.11,170.1,115.67,190.51,476.27,Single-ply,SBD,M
Boys,89.81,13,Marquez Byrd,Navasota,82.19,172.37,83.91,195.04,451.32,Single-ply,SBD,M
Boys,82.1,14,Joseph Lilly,Hempstead,79.74,158.76,97.52,154.22,410.5,Single-ply,SBD,M
Boys,82.1,DQ,Blake Reeves,Centerville,82.1,154.22,,,,Single-ply,SBD,M
Boys,82.1,DQ,Eric Washington,Bryan Rudder,82.1,158.76,,,,Single-ply,SBD,M
Boys,82.1,DQ,Dyllan Kerr,Hallettsville,81.83,170.1,,,,Single-ply,SBD,M
Boys,89.81,DQ,Kevin Harris,Navasota,82.24,170.1,,,,Single-ply,SBD,M
Boys,89.81,1,DJ Levias,College Station A&M Cons,89.36,278.96,158.76,249.48,687.19,Single-ply,SBD,M
Boys,89.81,2,Brian Jones,Montgomery,89.72,215.46,154.22,222.26,591.94,Single-ply,SBD,M
Boys,89.81,3,Michael Clouston,College Station A&M Cons,89.09,240.4,129.27,217.72,587.4,Single-ply,SBD,M
Boys,89.81,4,Howard Horn,Navasota,86.45,195.04,140.61,215.46,551.11,Single-ply,SBD,M
Boys,89.81,5,Jason Paul,Conroe Woodlands College Park,88,226.8,122.47,195.04,544.31,Single-ply,SBD,M
Boys,89.81,6,Sean McGrew,Hearne,83.37,208.65,113.4,217.72,539.77,Single-ply,SBD,M
Boys,89.81,7,Jonathan Massey,Caldwell,87.91,215.46,122.47,183.7,521.63,Single-ply,SBD,M
Boys,89.81,8,Ayman Elayyan,Houston Cypress Woods,84.19,183.7,138.35,195.04,517.1,Single-ply,SBD,M
Boys,89.81,9,Nick Johnson,Hearne,87.36,176.9,115.67,217.72,510.29,Single-ply,SBD,M
Boys,89.81,10,James Roach,Centerville,87.91,172.37,111.13,181.44,464.93,Single-ply,SBD,M
Boys,89.81,11,Zak Adams,Splendora,88.27,174.63,104.33,181.44,460.4,Single-ply,SBD,M
Boys,89.81,12,Charles Cavanaugh,Navasota,86.18,149.69,81.65,181.44,412.77,Single-ply,SBD,M
Boys,89.81,DQ,Tim Gaytan,Hempstead,89.81,,,,,Single-ply,SBD,M
Boys,89.81,DQ,Patrick McCloud,Conroe The Woodlands,89.81,,,,,Single-ply,SBD,M
Boys,89.81,DQ,Ivan Rivas,Buffalo,89.81,,,,,Single-ply,SBD,M
Boys,89.81,DQ,Travis Vornkahl,Bellville,89.81,,,,,Single-ply,SBD,M
Boys,89.81,DQ,Alejandro Rodriguez,Bryan Rudder,88.09,174.63,99.79,,,Single-ply,SBD,M
Boys,89.81,DQ,Kyle Ray,Splendora,86.55,,,,,Single-ply,SBD,M
Boys,89.81,DQ,James Czajkowski,Rockdale,86.91,,,,,Single-ply,SBD,M
Boys,109.77,1,Josh Gutierrez,Magnolia West,99.97,249.48,163.29,226.8,639.57,Single-ply,SBD,M
Boys,99.79,2,Luis Garcia #2,College Station A&M Cons,92.8,242.67,149.69,233.6,625.96,Single-ply,SBD,M
Boys,99.79,3,Juan Nunez,Caldwell,98.52,240.4,147.42,231.33,619.15,Single-ply,SBD,M
Boys,99.79,4,Nathan Klawinsky,Montgomery,98.52,222.26,151.95,238.14,612.35,Single-ply,SBD,M
Boys,99.79,5,Etheridge Brooks,Madisonville,97.89,226.8,142.88,219.99,589.67,Single-ply,SBD,M
Boys,109.77,6,Ej Waggy,Rogers,99.97,242.67,138.35,204.12,585.13,Single-ply,SBD,M
Boys,99.79,7,Cory Goosby,Bryan,93.71,219.99,131.54,217.72,569.26,Single-ply,SBD,M
Boys,99.79,8,Chad Murski,Conroe Woodlands College Park,98.34,229.06,117.93,219.99,566.99,Single-ply,SBD,M
Boys,99.79,9,Julio Camarena,Madisonville,98.16,192.78,117.93,192.78,503.49,Single-ply,SBD,M
Boys,99.79,10,Trey Taylor,Brookshire Royal,94.8,190.51,120.2,181.44,492.15,Single-ply,SBD,M
Boys,99.79,11,Darius Ross,Bryan,90.72,190.51,97.52,197.31,485.34,Single-ply,SBD,M
Boys,99.79,12,Clayton Lapp,Bryan Rudder,94.17,172.37,115.67,165.56,453.59,Single-ply,SBD,M
Boys,99.79,13,Cade Blezinger,Bellville,92.9,167.83,92.99,172.37,433.18,Single-ply,SBD,M
Boys,99.79,14,David Ramirez,Navasota,90.26,181.44,81.65,156.49,419.57,Single-ply,SBD,M
Boys,99.79,15,Jp Gonzalez,Bryan Rudder,93.89,161.03,86.18,151.95,399.16,Single-ply,SBD,M
Boys,109.77,16,Francisco Huerta,Brookshire Royal,99.97,142.88,102.06,124.74,369.68,Single-ply,SBD,M
Boys,99.79,DQ,Sergio Vargas,Bryan Rudder,95.16,183.7,,,,Single-ply,SBD,M
Boys,99.79,DQ,Jordan Jones #6,Houston Cypress Woods,96.34,226.8,124.74,,,Single-ply,SBD,M
Boys,109.77,1,Wyatt Smith,College Station A&M Cons,107.05,272.16,147.42,231.33,650.91,Single-ply,SBD,M
Boys,109.77,2,Tyler Glasscock,Magnolia West,109.13,233.6,149.69,240.4,623.69,Single-ply,SBD,M
Boys,109.77,3,Kenny Furches,Conroe The Woodlands,102.6,240.4,129.27,242.67,612.35,Single-ply,SBD,M
Boys,109.77,4,Marquise White,Houston Cypress Woods,105.78,247.21,120.2,229.06,596.47,Single-ply,SBD,M
Boys,109.77,5,Darwin Castellanos,Magnolia West,108.86,201.85,154.22,208.65,564.72,Single-ply,SBD,M
Boys,109.77,6,Cody Skrivanek,Magnolia West,102.51,204.12,127.01,197.31,528.44,Single-ply,SBD,M
Boys,109.77,7,Roberto Requena,Caldwell,109.5,192.78,113.4,208.65,514.83,Single-ply,SBD,M
Boys,109.77,8,Austen Williams,Bellville,104.14,183.7,120.2,165.56,469.47,Single-ply,SBD,M
Boys,109.77,9,Kurtis Parker,Centerville,100.52,172.37,111.13,174.63,458.13,Single-ply,SBD,M
Boys,109.77,10,Billy Freeman,College Station A&M Cons,107.59,172.37,95.25,172.37,439.98,Single-ply,SBD,M
Boys,109.77,DQ,Markho Babasoro,College Station A&M Cons,109.77,,,,,Single-ply,SBD,M
Boys,109.77,DQ,Mario Cortez,Buffalo,109.77,,,,,Single-ply,SBD,M
Boys,109.77,DQ,Cody Nichols,Navasota,109.77,,,,,Single-ply,SBD,M
Boys,109.77,DQ,Austin Ashley,Madisonville,105.41,188.24,,,,Single-ply,SBD,M
Boys,124.74,1,Autra Maxey,Navasota,115.94,272.16,158.76,278.96,709.87,Single-ply,SBD,M
Boys,124.74,2,Jordan Wells,Navasota,122.56,249.48,165.56,254.01,669.05,Single-ply,SBD,M
Boys,124.74,3,Mike Cadena,Bryan,124.74,272.16,154.22,240.4,666.78,Single-ply,SBD,M
Boys,124.74,4,Blake Teasdale,Montgomery,119.66,222.26,163.29,217.72,603.28,Single-ply,SBD,M
Boys,124.74,5,Jorge Rosas,Madisonville,113.58,238.14,124.74,210.92,573.79,Single-ply,SBD,M
Boys,124.74,6,Brad Carley,Conroe Woodlands College Park,117.12,208.65,129.27,206.38,544.31,Single-ply,SBD,M
Boys,124.74,7,Kyle Kavanaugh,College Station A&M Cons,111.58,183.7,124.74,204.12,512.56,Single-ply,SBD,M
Boys,124.74,8,Rhakeem Thompson,Navasota,121.61,195.04,108.86,190.51,494.42,Single-ply,SBD,M
Boys,124.74,9,Shawn Soto,Navasota,113.49,185.97,90.72,145.15,421.84,Single-ply,SBD,M
Boys,124.74,DQ,Alex Montano,Buffalo,124.74,172.37,,,,Single-ply,SBD,M
Boys,124.74,DQ,Clark James,Bryan Rudder,124.74,136.08,,,,Single-ply,SBD,M
Boys,124.74,DQ,Kevin Gonzales,Centerville,115.85,185.97,127.01,,,Single-ply,SBD,M
Boys,124.74+,1,Terran Alves,Houston Cypress Woods,142.88,249.48,197.31,238.14,684.92,Single-ply,SBD,M
Boys,124.74+,2,Mark Poteat,Conroe The Woodlands,167.83,303.91,138.35,226.8,669.05,Single-ply,SBD,M
Boys,124.74+,3,Michael Craig,Madisonville,146.96,226.8,136.08,204.12,566.99,Single-ply,SBD,M
Boys,124.74+,4,Trevin Pomier,Navasota,167.83,226.8,127.01,208.65,562.45,Single-ply,SBD,M
Boys,124.74+,5,Tyler White #4,Navasota,144.24,188.24,111.13,199.58,498.95,Single-ply,SBD,M
Boys,124.74+,6,Ronald Brown,Navasota,125.01,190.51,99.79,181.44,471.74,Single-ply,SBD,M
Boys,124.74+,7,Zarrus Smith,Bryan Rudder,165.56,181.44,102.06,142.88,426.38,Single-ply,SBD,M
Boys,124.74+,8,Dustin Blankemeyer,Bellville,125.74,170.1,74.84,156.49,401.43,Single-ply,SBD,M
Boys,124.74+,9,Cody Jackson,New Waverly,135.17,74.84,81.65,136.08,292.57,Single-ply,SBD,M
Boys,124.74+,DQ,Keith Lewis,Bryan,181.44,,,,,Single-ply,SBD,M
Boys,124.74+,DQ,Michael Cervera,Conroe Woodlands College Park,181.44,,,,,Single-ply,SBD,M
Boys,124.74+,DQ,Kyle Frey,Magnolia West,181.44,190.51,,,,Single-ply,SBD,M
Boys,124.74+,DQ,Larry Reed #2,Magnolia,138.35,301.64,151.95,,,Single-ply,SBD,M
